timestamp,tx,ty,tz,rx,ry,rz
1492887041203564883,11.851,13.264,-0.319,0.0,-0.0,0.0
1492887041303568566,11.851,13.263,-0.316,0.0,-0.0,0.0
1492887041403570523,11.851,13.264,-0.313,0.0,-0.0,0.0
1492887041503591043,11.851,13.262,-0.312,0.0,-0.0,0.0
1492887041627614589,11.851,13.263,-0.314,0.0,-0.0,0.0
1492887041703636377,11.852,13.262,-0.321,0.0,-0.0,0.0
1492887041804621996,11.851,13.261,-0.32,0.0,-0.0,0.0
1492887041902156883,11.851,13.262,-0.323,0.0,-0.0,0.0
1492887042003644078,11.851,13.263,-0.32,0.0,-0.0,0.0
1492887042104685967,11.851,13.263,-0.319,0.0,-0.0,0.0
1492887042203090982,11.851,13.263,-0.317,0.0,-0.0,0.0
1492887042303113510,11.85,13.263,-0.316,0.0,-0.0,0.0
1492887042403639250,11.85,13.263,-0.315,0.0,-0.0,0.0
1492887042503155310,11.849,13.263,-0.315,0.0,-0.0,0.0
1492887042628129070,11.849,13.263,-0.313,0.0,-0.0,0.0
1492887042704162754,11.852,13.261,-0.323,0.0,-0.0,0.0
1492887042804792370,11.851,13.261,-0.322,0.0,-0.0,0.0
1492887042903799257,11.852,13.261,-0.321,0.0,-0.0,0.0
1492887043003803797,11.852,13.263,-0.32,0.0,-0.0,0.0
1492887043104801822,11.852,13.265,-0.318,0.0,-0.0,0.0
1492887043200817984,11.852,13.263,-0.318,0.0,-0.0,0.0
1492887043301843465,11.852,13.264,-0.319,0.0,-0.0,0.0
1492887043403881827,11.85,13.265,-0.314,0.0,-0.0,0.0
1492887043503881663,11.851,13.265,-0.317,0.0,-0.0,0.0
1492887043628282446,11.849,13.265,-0.314,0.0,-0.0,0.0
1492887043704292411,11.851,13.262,-0.32,0.0,-0.0,0.0
1492887043804311964,11.852,13.261,-0.318,0.0,-0.0,0.0
1492887043904343802,11.852,13.262,-0.318,0.0,-0.0,0.0
1492887044004356229,11.853,13.262,-0.317,0.0,-0.0,0.0
1492887044105002118,11.853,13.263,-0.314,0.0,-0.0,0.0
1492887044204009769,11.853,13.264,-0.316,0.0,-0.0,0.0
1492887044304018301,11.852,13.264,-0.315,0.0,-0.0,0.0
1492887044403997300,11.852,13.264,-0.314,0.0,-0.0,0.0
1492887044503983013,11.852,13.263,-0.315,0.0,-0.0,0.0
1492887044626506423,11.851,13.263,-0.312,0.0,-0.0,0.0
1492887044702009183,11.852,13.261,-0.322,0.0,-0.0,0.0
1492887044805027006,11.852,13.261,-0.321,0.0,-0.0,0.0
1492887044905003248,11.852,13.262,-0.319,0.0,-0.0,0.0
1492887045004482838,11.852,13.263,-0.318,0.0,-0.0,0.0
1492887045104486033,11.851,13.262,-0.319,0.0,-0.0,0.0
1492887045203469993,11.851,13.262,-0.318,0.0,-0.0,0.0
1492887045303485163,11.851,13.262,-0.314,0.0,-0.0,0.0
1492887045403510997,11.851,13.262,-0.315,0.0,-0.0,0.0
1492887045503565661,11.851,13.263,-0.314,0.0,-0.0,0.0
1492887045628162320,11.85,13.262,-0.314,0.0,-0.0,0.0
1492887045703142923,11.851,13.261,-0.322,0.0,-0.0,0.0
1492887045804160493,11.85,13.261,-0.319,0.0,-0.0,0.0
1492887045904172384,11.85,13.262,-0.319,0.0,-0.0,0.0
1492887046000707877,11.849,13.262,-0.319,0.0,-0.0,0.0
1492887046101731226,11.85,13.261,-0.318,0.0,-0.0,0.0
1492887046203214396,11.849,13.262,-0.316,0.0,-0.0,0.0
1492887046303257897,11.85,13.263,-0.318,0.0,-0.0,0.0
1492887046403220123,11.851,13.263,-0.317,0.0,-0.0,0.0
1492887046503677477,11.85,13.263,-0.316,0.0,-0.0,0.0
1492887046627657405,11.85,13.263,-0.315,0.0,-0.0,0.0
1492887046703671026,11.851,13.262,-0.321,0.0,-0.0,0.0
1492887046810816209,11.851,13.262,-0.322,0.0,-0.0,0.0
1492887046904297963,11.851,13.261,-0.32,0.0,-0.0,0.0
1492887047003367373,11.851,13.261,-0.319,0.0,-0.0,0.0
1492887047104375460,11.851,13.261,-0.318,0.0,-0.0,0.0
1492887047202836973,11.85,13.262,-0.317,0.0,-0.0,0.0
1492887047302409323,11.851,13.261,-0.318,0.0,-0.0,0.0
1492887047400371385,11.851,13.261,-0.318,0.0,-0.0,0.0
1492887047500411726,11.85,13.262,-0.316,0.0,-0.0,0.0
1492887047627393644,11.851,13.263,-0.317,0.0,-0.0,0.0
1492887047703853072,11.852,13.263,-0.321,0.0,-0.0,0.0
1492887047803896625,11.852,13.262,-0.32,0.0,-0.0,0.0
1492887047903849287,11.851,13.263,-0.319,0.0,-0.0,0.0
1492887048003891461,11.852,13.262,-0.319,0.0,-0.0,0.0
1492887048103902902,11.851,13.262,-0.316,0.0,-0.0,0.0
1492887048203944305,11.851,13.262,-0.316,0.0,-0.0,0.0
1492887048302907798,11.851,13.262,-0.312,0.0,-0.0,0.0
1492887048403502537,11.851,13.262,-0.313,0.0,-0.0,0.0
1492887048503521025,11.85,13.263,-0.312,0.0,-0.0,0.0
1492887048627588597,11.85,13.264,-0.314,0.0,-0.0,0.0
1492887048703540417,11.852,13.262,-0.319,0.0,-0.0,0.0
1492887048801524388,11.852,13.261,-0.318,0.0,-0.0,0.0
1492887048901578073,11.851,13.261,-0.316,0.0,-0.0,0.0
1492887049003591204,11.851,13.262,-0.317,0.0,-0.0,0.0
1492887049104089689,11.851,13.263,-0.316,0.0,-0.0,0.0
1492887049203032324,11.85,13.263,-0.314,0.0,-0.0,0.0
1492887049303043326,11.851,13.263,-0.314,0.0,-0.0,0.0
1492887049403058292,11.85,13.262,-0.312,0.0,-0.0,0.0
1492887049503566777,11.85,13.262,-0.311,0.0,-0.0,0.0
1492887049628100598,11.849,13.261,-0.31,0.0,-0.0,0.0
1492887049703748713,11.851,13.261,-0.317,0.0,-0.0,0.0
1492887049803715351,11.852,13.262,-0.318,0.0,-0.0,0.0
1492887049903732590,11.851,13.262,-0.316,0.0,-0.0,0.0
1492887050003712796,11.851,13.262,-0.316,0.0,-0.0,0.0
1492887050101265547,11.85,13.262,-0.318,0.0,-0.0,0.0
1492887050201746080,11.85,13.263,-0.317,0.0,-0.0,0.0
1492887050303809861,11.851,13.264,-0.315,0.0,-0.0,0.0
1492887050408191070,11.85,13.264,-0.318,0.0,-0.0,0.0
1492887050504237807,11.85,13.263,-0.315,0.0,-0.0,0.0
1492887050628245352,11.85,13.263,-0.315,0.0,-0.0,0.0
1492887050704249908,11.852,13.262,-0.321,0.0,-0.0,0.0
1492887050804242527,11.851,13.262,-0.318,0.0,-0.0,0.0
1492887050904256537,11.851,13.262,-0.318,0.0,-0.0,0.0
1492887051003783285,11.851,13.262,-0.318,0.0,-0.0,0.0
1492887051104854519,11.851,13.262,-0.317,0.0,-0.0,0.0
1492887051203407171,11.851,13.263,-0.318,0.0,-0.0,0.0
1492887051303434679,11.852,13.263,-0.317,0.0,-0.0,0.0
1492887051403882386,11.85,13.263,-0.315,0.0,-0.0,0.0
1492887051500922178,11.851,13.263,-0.314,0.0,-0.0,0.0
1492887051625923218,11.85,13.263,-0.314,0.0,-0.0,0.0
1492887051703947940,11.85,13.259,-0.319,0.0,-0.0,0.0
1492887051804930869,11.85,13.26,-0.317,0.0,-0.0,0.0
1492887051904411979,11.851,13.258,-0.319,0.0,-0.0,0.0
1492887052004399798,11.85,13.259,-0.316,0.0,-0.0,0.0
1492887052104423724,11.85,13.26,-0.32,0.0,-0.0,0.0
1492887052204434147,11.85,13.26,-0.314,0.0,-0.0,0.0
1492887052303491847,11.85,13.26,-0.316,0.0,-0.0,0.0
1492887052412472055,11.85,13.261,-0.314,0.0,-0.0,0.0
1492887052504159995,11.85,13.261,-0.317,0.0,-0.0,0.0
1492887052628085606,11.85,13.261,-0.313,0.0,-0.0,0.0
1492887052704102596,11.854,13.265,-0.321,0.0,-0.0,0.0
1492887052804608241,11.86,13.275,-0.322,0.0,-0.0,0.0
1492887052903099314,11.872,13.293,-0.327,0.0,-0.0,0.0
1492887053002133756,11.891,13.324,-0.326,0.0,-0.0,0.0
1492887053105136310,11.918,13.368,-0.331,0.0,-0.0,0.0
1492887053203141054,11.957,13.43,-0.335,0.0,-0.0,0.0
1492887053303566915,12.011,13.512,-0.337,0.0,-0.0,0.0
1492887053403568934,12.074,13.61,-0.329,0.0,-0.0,0.0
1492887053503598313,12.152,13.733,-0.335,0.0,-0.0,0.0
1492887053628617136,12.245,13.879,-0.337,0.0,-0.0,0.0
1492887053704628851,12.348,14.043,-0.336,0.0,-0.0,0.0
1492887053804640655,12.468,14.236,-0.331,0.0,-0.0,0.0
1492887053904800150,12.603,14.449,-0.338,0.0,-0.0,0.0
1492887054004228076,12.758,14.687,-0.334,0.0,-0.0,0.0
1492887054104260614,12.925,14.951,-0.34,0.0,-0.0,0.0
1492887054202286537,13.107,15.235,-0.346,0.0,-0.0,0.0
1492887054302285143,13.304,15.54,-0.346,0.0,-0.0,0.0
1492887054407283019,13.515,15.865,-0.345,0.0,-0.0,0.0
1492887054504317589,13.731,16.205,-0.339,0.0,-0.0,0.0
1492887054628749156,13.95,16.554,-0.347,0.0,-0.0,0.0
1492887054704738685,14.173,16.91,-0.351,0.0,-0.0,0.0
1492887054804808308,14.398,17.271,-0.354,0.0,-0.0,0.0
1492887054904817100,14.622,17.636,-0.37,0.0,-0.0,0.0
1492887055003804657,14.853,18.001,-0.372,0.0,-0.0,0.0
1492887055105314567,15.088,18.367,-0.372,0.0,-0.0,0.0
1492887055204388561,15.323,18.738,-0.382,0.0,-0.0,0.0
1492887055304444230,15.562,19.108,-0.369,0.0,-0.0,0.0
1492887055404437129,15.8,19.487,-0.374,0.0,-0.0,0.0
1492887055504431251,16.038,19.864,-0.382,0.0,-0.0,0.0
1492887055626490118,16.278,20.241,-0.385,0.0,-0.0,0.0
1492887055702453408,16.51,20.618,-0.41,0.0,-0.0,0.0
1492887055805510773,16.742,20.994,-0.407,0.0,-0.0,0.0
1492887055904536320,16.975,21.37,-0.409,0.0,-0.0,0.0
1492887056004925366,17.205,21.742,-0.414,0.0,-0.0,0.0
1492887056105963902,17.434,22.119,-0.414,0.0,-0.0,0.0
1492887056204970559,17.67,22.493,-0.418,0.0,-0.0,0.0
1492887056304004477,17.906,22.87,-0.419,0.0,-0.0,0.0
1492887056403963296,18.141,23.243,-0.411,0.0,-0.0,0.0
1492887056503585782,18.373,23.619,-0.412,0.0,-0.0,0.0
1492887056626595128,18.596,24.002,-0.451,0.0,-0.0,0.0
1492887056703636414,18.821,24.373,-0.461,0.0,-0.0,0.0
1492887056804672521,19.044,24.747,-0.471,0.0,-0.0,0.0
1492887056904648386,19.272,25.114,-0.474,0.0,-0.0,0.0
1492887057003631548,19.498,25.483,-0.48,0.0,-0.0,0.0
1492887057101141795,19.722,25.853,-0.491,0.0,-0.0,0.0
1492887057200149901,19.945,26.224,-0.496,0.0,-0.0,0.0
1492887057302668528,20.166,26.591,-0.493,0.0,-0.0,0.0
1492887057402707787,20.385,26.955,-0.5,0.0,-0.0,0.0
1492887057502718964,20.604,27.318,-0.511,0.0,-0.0,0.0
1492887057626125753,20.825,27.676,-0.515,0.0,-0.0,0.0
1492887057703152746,21.041,28.032,-0.533,0.0,-0.0,0.0
1492887057803708009,21.253,28.394,-0.543,0.0,-0.0,0.0
1492887057903193941,21.462,28.753,-0.553,0.0,-0.0,0.0
1492887058004239211,21.676,29.11,-0.559,0.0,-0.0,0.0
1492887058103260522,21.895,29.46,-0.567,0.0,-0.0,0.0
1492887058202859590,22.111,29.809,-0.565,0.0,-0.0,0.0
1492887058302831094,22.321,30.157,-0.578,0.0,-0.0,0.0
1492887058401833086,22.523,30.5,-0.584,0.0,-0.0,0.0
1492887058500381519,22.718,30.834,-0.595,0.0,-0.0,0.0
1492887058623861750,22.91,31.161,-0.601,0.0,-0.0,0.0
1492887058702900425,23.098,31.477,-0.617,0.0,-0.0,0.0
1492887058803902741,23.284,31.789,-0.622,0.0,-0.0,0.0
1492887058902890203,23.467,32.096,-0.634,0.0,-0.0,0.0
1492887059002922965,23.646,32.395,-0.648,0.0,-0.0,0.0
1492887059103374372,23.813,32.691,-0.655,0.0,-0.0,0.0
1492887059202369182,23.976,32.984,-0.659,0.0,-0.0,0.0
1492887059303402529,24.142,33.273,-0.662,0.0,-0.0,0.0
1492887059402892752,24.308,33.559,-0.67,0.0,-0.0,0.0
1492887059503439742,24.474,33.848,-0.68,0.0,-0.0,0.0
1492887059625995448,24.64,34.136,-0.683,0.0,-0.0,0.0
1492887059703037010,24.807,34.424,-0.702,0.0,-0.0,0.0
1492887059801041585,24.969,34.711,-0.712,0.0,-0.0,0.0
1492887059901062835,25.131,34.998,-0.715,0.0,-0.0,0.0
1492887060003076316,25.295,35.293,-0.716,0.0,-0.0,0.0
1492887060103063091,25.457,35.596,-0.716,0.0,-0.0,0.0
1492887060202059512,25.62,35.904,-0.72,0.0,-0.0,0.0
1492887060302091494,25.791,36.215,-0.722,0.0,-0.0,0.0
1492887060402548172,25.966,36.534,-0.734,0.0,-0.0,0.0
1492887060502587237,26.143,36.854,-0.748,0.0,-0.0,0.0
1492887060625548872,26.325,37.178,-0.756,0.0,-0.0,0.0
1492887060702574936,26.506,37.5,-0.755,0.0,-0.0,0.0
1492887060803599622,26.684,37.821,-0.753,0.0,-0.0,0.0
1492887060903638280,26.853,38.138,-0.752,0.0,-0.0,0.0
1492887061002650694,27.023,38.447,-0.751,0.0,-0.0,0.0
1492887061103223288,27.192,38.753,-0.755,0.0,-0.0,0.0
1492887061200215885,27.354,39.051,-0.758,0.0,-0.0,0.0
1492887061301198879,27.515,39.341,-0.766,0.0,-0.0,0.0
1492887061403226515,27.674,39.622,-0.775,0.0,-0.0,0.0
1492887061503233587,27.831,39.896,-0.778,0.0,-0.0,0.0
1492887061626239387,27.983,40.165,-0.777,0.0,-0.0,0.0
1492887061703258180,28.129,40.428,-0.778,0.0,-0.0,0.0
1492887061803293816,28.269,40.683,-0.782,0.0,-0.0,0.0
1492887061912305616,28.412,40.932,-0.791,0.0,-0.0,0.0
1492887062003689056,28.55,41.172,-0.791,0.0,-0.0,0.0
1492887062103729210,28.678,41.404,-0.792,0.0,-0.0,0.0
1492887062202743840,28.8,41.627,-0.79,0.0,-0.0,0.0
1492887062302782040,28.917,41.843,-0.791,0.0,-0.0,0.0
1492887062402757932,29.034,42.052,-0.792,0.0,-0.0,0.0
1492887062500307213,29.152,42.253,-0.793,0.0,-0.0,0.0
1492887062624377440,29.262,42.448,-0.796,0.0,-0.0,0.0
1492887062700917613,29.365,42.63,-0.819,0.0,-0.0,0.0
1492887062803454336,29.466,42.812,-0.824,0.0,-0.0,0.0
1492887062903465107,29.567,42.986,-0.827,0.0,-0.0,0.0
1492887063003470614,29.663,43.153,-0.831,0.0,-0.0,0.0
1492887063104464355,29.753,43.311,-0.833,0.0,-0.0,0.0
1492887063203480895,29.837,43.455,-0.836,0.0,-0.0,0.0
1492887063303491160,29.914,43.596,-0.84,0.0,-0.0,0.0
1492887063403936726,29.986,43.728,-0.843,0.0,-0.0,0.0
1492887063503939998,30.054,43.849,-0.84,0.0,-0.0,0.0
1492887063626482793,30.116,43.961,-0.84,0.0,-0.0,0.0
1492887063704013713,30.171,44.062,-0.849,0.0,-0.0,0.0
1492887063803975977,30.224,44.155,-0.853,0.0,-0.0,0.0
1492887063901997743,30.271,44.241,-0.854,0.0,-0.0,0.0
1492887064001561375,30.316,44.319,-0.853,0.0,-0.0,0.0
1492887064104097282,30.356,44.388,-0.854,0.0,-0.0,0.0
1492887064202610720,30.392,44.451,-0.856,0.0,-0.0,0.0
1492887064303662706,30.421,44.506,-0.857,0.0,-0.0,0.0
1492887064403136854,30.445,44.55,-0.858,0.0,-0.0,0.0
1492887064503651722,30.465,44.584,-0.856,0.0,-0.0,0.0
1492887064626631041,30.481,44.611,-0.856,0.0,-0.0,0.0
1492887064703656001,30.489,44.628,-0.861,0.0,-0.0,0.0
1492887064803668138,30.494,44.638,-0.861,0.0,-0.0,0.0
1492887064904163295,30.494,44.638,-0.86,0.0,-0.0,0.0
