timestamp,lat,long,alt
1492886987385814251,37.4268320131,-122.07608079,-28.3500407064
1492886987485669244,37.4268311337,-122.076084681,-28.358031582
1492886987608578954,37.426830297,-122.076088613,-28.3673854938
1492886987886217668,37.4268281337,-122.076100467,-28.3730481736
1492886987991168979,37.4268274225,-122.076104308,-28.3776228245
1492886988385597893,37.4268249363,-122.07611913,-28.3997655033
1492886988608371976,37.4268237468,-122.076126437,-28.4090712401
1492886988685154334,37.4268229918,-122.076130071,-28.4175923267
1492886988885958858,37.4268211121,-122.076137595,-28.4287008088
1492886989609959092,37.426811277,-122.076168136,-28.4016813088
1492886990386050485,37.4267887259,-122.07620401,-28.398590768
1492886990608835635,37.4267812941,-122.076212213,-28.3974288675
1492886991385932014,37.426747018,-122.076243027,-28.3770416941
1492886991608644068,37.4267374922,-122.076250469,-28.3654775852
1492886991885809331,37.4267228903,-122.076261144,-28.3515748274
1492886991993239711,37.4267179849,-122.076264735,-28.3386948746
1492886992607382912,37.4266887735,-122.076285799,-28.2811087186
1492886992886097690,37.4266742678,-122.076295978,-28.2597637618
1492886993386494178,37.4266505189,-122.076312495,-28.1986703533
1492886993607157990,37.426641272,-122.076319092,-28.1688635182
1492886993885823118,37.4266275341,-122.07632888,-28.1595802624
1492886993988707747,37.4266229865,-122.076332085,-28.1505012659
1492886994088098779,37.4266185068,-122.076335287,-28.1565417762
1492886994386181129,37.4266050852,-122.076344778,-28.120596783
1492886994605880493,37.4265962171,-122.076350953,-28.0925143314
1492886994886543101,37.4265830846,-122.076360111,-28.091150317
1492886995185060807,37.4265701094,-122.076369045,-28.0823528003
1492886995606600323,37.4265528968,-122.076380764,-28.0407645092
1492886995886194050,37.4265403179,-122.076389746,-28.0590640422
1492886995985184736,37.4265360986,-122.076392636,-28.0435419259
1492886996386604756,37.4265188526,-122.076403814,-28.0189701026
