timestamp,tx,ty,tz,rx,ry,rz
1492886986801537215,40.787,50.764,-1.206,0.0,-0.0,0.0
1492886986902399128,40.478,50.579,-1.205,0.0,-0.0,0.0
1492886987002298333,40.154,50.409,-1.21,0.0,-0.0,0.0
1492886987103169493,39.831,50.249,-1.207,0.0,-0.0,0.0
1492886987202055583,39.5,50.103,-1.212,0.0,-0.0,0.0
1492886987300985598,39.164,49.977,-1.216,0.0,-0.0,0.0
1492886987400817320,38.821,49.867,-1.218,0.0,-0.0,0.0
1492886987500281893,38.477,49.769,-1.225,0.0,-0.0,0.0
1492886987623624524,38.129,49.676,-1.234,0.0,-0.0,0.0
1492886987700416277,37.776,49.594,-1.243,0.0,-0.0,0.0
1492886987800361202,37.422,49.517,-1.246,0.0,-0.0,0.0
1492886987901241487,37.079,49.436,-1.239,0.0,-0.0,0.0
1492886988006200575,36.739,49.357,-1.244,0.0,-0.0,0.0
1492886988101958555,36.406,49.278,-1.236,0.0,-0.0,0.0
1492886988200812579,36.076,49.203,-1.24,0.0,-0.0,0.0
1492886988300672945,35.753,49.14,-1.252,0.0,-0.0,0.0
1492886988400597519,35.427,49.081,-1.265,0.0,-0.0,0.0
1492886988500419841,35.102,49.02,-1.271,0.0,-0.0,0.0
1492886988623370602,34.781,48.949,-1.274,0.0,-0.0,0.0
1492886988699731776,34.459,48.865,-1.282,0.0,-0.0,0.0
1492886988801081830,34.13,48.767,-1.287,0.0,-0.0,0.0
1492886988900960059,33.793,48.657,-1.293,0.0,-0.0,0.0
1492886989000857739,33.444,48.542,-1.299,0.0,-0.0,0.0
1492886989101690962,33.076,48.423,-1.301,0.0,-0.0,0.0
1492886989201538777,32.69,48.299,-1.296,0.0,-0.0,0.0
1492886989300438816,32.298,48.156,-1.29,0.0,-0.0,0.0
1492886989401241205,31.899,47.982,-1.279,0.0,-0.0,0.0
1492886989501100493,31.495,47.785,-1.266,0.0,-0.0,0.0
1492886989624960326,31.09,47.565,-1.262,0.0,-0.0,0.0
1492886989700894266,30.685,47.326,-1.283,0.0,-0.0,0.0
1492886989800811146,30.274,47.065,-1.289,0.0,-0.0,0.0
1492886989901686085,29.863,46.787,-1.279,0.0,-0.0,0.0
1492886990001616812,29.461,46.482,-1.276,0.0,-0.0,0.0
1492886990102448721,29.063,46.155,-1.269,0.0,-0.0,0.0
1492886990201370914,28.675,45.81,-1.259,0.0,-0.0,0.0
1492886990302190299,28.29,45.446,-1.252,0.0,-0.0,0.0
1492886990401049127,27.915,45.062,-1.251,0.0,-0.0,0.0
1492886990500007227,27.546,44.66,-1.248,0.0,-0.0,0.0
1492886990623836585,27.189,44.238,-1.247,0.0,-0.0,0.0
1492886990700737024,26.834,43.805,-1.243,0.0,-0.0,0.0
1492886990800113118,26.481,43.361,-1.239,0.0,-0.0,0.0
1492886990901492984,26.127,42.904,-1.231,0.0,-0.0,0.0
1492886991001325356,25.777,42.438,-1.234,0.0,-0.0,0.0
1492886991101233226,25.438,41.957,-1.233,0.0,-0.0,0.0
1492886991200638125,25.106,41.462,-1.222,0.0,-0.0,0.0
1492886991301043074,24.781,40.954,-1.217,0.0,-0.0,0.0
1492886991400960214,24.461,40.434,-1.214,0.0,-0.0,0.0
1492886991500826756,24.134,39.907,-1.21,0.0,-0.0,0.0
1492886991623669835,23.802,39.376,-1.199,0.0,-0.0,0.0
1492886991700512267,23.481,38.843,-1.195,0.0,-0.0,0.0
1492886991800483593,23.17,38.299,-1.191,0.0,-0.0,0.0
1492886991900812133,22.858,37.756,-1.18,0.0,-0.0,0.0
1492886992008243663,22.54,37.212,-1.166,0.0,-0.0,0.0
1492886992101057224,22.224,36.671,-1.152,0.0,-0.0,0.0
1492886992200900933,21.911,36.128,-1.132,0.0,-0.0,0.0
1492886992300788040,21.599,35.586,-1.125,0.0,-0.0,0.0
1492886992400631998,21.288,35.044,-1.115,0.0,-0.0,0.0
1492886992498592995,20.982,34.507,-1.104,0.0,-0.0,0.0
1492886992622388135,20.675,33.97,-1.098,0.0,-0.0,0.0
1492886992700276738,20.375,33.431,-1.094,0.0,-0.0,0.0
1492886992799238801,20.074,32.894,-1.081,0.0,-0.0,0.0
1492886992901064193,19.774,32.36,-1.071,0.0,-0.0,0.0
1492886992999961546,19.478,31.827,-1.056,0.0,-0.0,0.0
1492886993099818654,19.185,31.301,-1.047,0.0,-0.0,0.0
1492886993199741623,18.886,30.778,-1.038,0.0,-0.0,0.0
1492886993300585979,18.602,30.249,-1.022,0.0,-0.0,0.0
1492886993401495054,18.312,29.724,-1.001,0.0,-0.0,0.0
1492886993499284774,18.026,29.206,-0.976,0.0,-0.0,0.0
1492886993622131905,17.728,28.698,-0.968,0.0,-0.0,0.0
1492886993699069751,17.437,28.189,-0.966,0.0,-0.0,0.0
1492886993798930860,17.145,27.681,-0.964,0.0,-0.0,0.0
1492886993900864329,16.862,27.173,-0.954,0.0,-0.0,0.0
1492886994003708709,16.578,26.669,-0.943,0.0,-0.0,0.0
1492886994103118980,16.295,26.172,-0.948,0.0,-0.0,0.0
1492886994204449624,16.016,25.668,-0.93,0.0,-0.0,0.0
1492886994299303070,15.735,25.176,-0.924,0.0,-0.0,0.0
1492886994401212596,15.455,24.682,-0.907,0.0,-0.0,0.0
1492886994498599245,15.177,24.189,-0.887,0.0,-0.0,0.0
1492886994620884311,14.908,23.698,-0.876,0.0,-0.0,0.0
1492886994698785056,14.643,23.205,-0.876,0.0,-0.0,0.0
1492886994799688029,14.374,22.719,-0.868,0.0,-0.0,0.0
1492886994901518899,14.098,22.24,-0.87,0.0,-0.0,0.0
1492886994999351710,13.82,21.767,-0.875,0.0,-0.0,0.0
1492886995100412391,13.564,21.283,-0.859,0.0,-0.0,0.0
1492886995199673390,13.307,20.8,-0.856,0.0,-0.0,0.0
1492886995299983648,13.045,20.319,-0.851,0.0,-0.0,0.0
1492886995400894139,12.787,19.842,-0.833,0.0,-0.0,0.0
1492886995499260539,12.532,19.362,-0.8,0.0,-0.0,0.0
1492886995621603739,12.27,18.89,-0.808,0.0,-0.0,0.0
1492886995699992714,11.997,18.427,-0.814,0.0,-0.0,0.0
1492886995800339154,11.729,17.96,-0.83,0.0,-0.0,0.0
1492886995901221312,11.475,17.494,-0.822,0.0,-0.0,0.0
1492886996000185513,11.219,17.026,-0.805,0.0,-0.0,0.0
1492886996100981459,10.972,16.556,-0.798,0.0,-0.0,0.0
1492886996200877535,10.73,16.079,-0.792,0.0,-0.0,0.0
1492886996300729087,10.483,15.597,-0.781,0.0,-0.0,0.0
1492886996401574869,10.23,15.112,-0.774,0.0,-0.0,0.0
1492886996499503933,9.966,14.623,-0.767,0.0,-0.0,0.0
1492886996621329954,9.699,14.13,-0.759,0.0,-0.0,0.0
1492886996699744603,9.439,13.623,-0.764,0.0,-0.0,0.0
1492886996800123551,9.176,13.106,-0.746,0.0,-0.0,0.0
1492886996901000738,8.909,12.585,-0.733,0.0,-0.0,0.0
1492886997000935020,8.642,12.061,-0.723,0.0,-0.0,0.0
1492886997100834033,8.373,11.527,-0.721,0.0,-0.0,0.0
1492886997200647765,8.109,10.984,-0.712,0.0,-0.0,0.0
