timestamp,lat,long,alt
1492885523078355474,37.4257948071,-122.076485583,-27.2506614699
1492885523177893077,37.4257929258,-122.07648398,-27.249499859
1492885523377923100,37.4257891825,-122.076480351,-27.2377978981
1492885523474900256,37.42578741,-122.076478263,-27.2287110699
1492885523677374260,37.425784058,-122.076473403,-27.2345237717
1492885523776395418,37.4257825542,-122.076470701,-27.233603769
1492885523876409083,37.4257812149,-122.076467756,-27.2307694703
1492885523975450159,37.4257799678,-122.076464724,-27.2280861748
1492885524076457302,37.4257788058,-122.076461606,-27.2257748327
1492885524195458100,37.4257777253,-122.076458315,-27.2184082413
1492885524275538951,37.4257768587,-122.076454776,-27.2084581422
1492885524376059578,37.4257761904,-122.07645113,-27.1976846927
1492885524476093993,37.4257757595,-122.076447461,-27.1883175972
1492885524676093717,37.4257755519,-122.076439869,-27.1874187785
1492885524776152130,37.4257757867,-122.076435809,-27.1861857533
1492885525077176773,37.425778047,-122.076422981,-27.1633544595
1492885525176635266,37.4257795941,-122.076418591,-27.1416601699
1492885525276586057,37.4257815507,-122.076414156,-27.1217786143
1492885525376150091,37.4257836914,-122.076409634,-27.1129132334
1492885525476150981,37.4257860811,-122.076405048,-27.1063103677
1492885525603611293,37.425788784,-122.076400438,-27.094040517
1492885525676646402,37.4257918729,-122.076395862,-27.0865067358
1492885525775713414,37.4257953847,-122.076391467,-27.0681227398
1492885525876256301,37.4257992279,-122.0763873,-27.0499441349
1492885526197318366,37.4258128323,-122.076375736,-27.0100239357
1492885526373244701,37.425823616,-122.076369095,-26.9836420801
1492885526475336671,37.4258293059,-122.076365939,-26.965844569
1492885526776788073,37.425847568,-122.076356608,-26.9385908933
1492885526876812131,37.4258541072,-122.076353615,-26.9177022118
1492885526975826140,37.4258608475,-122.076350474,-26.8954133082
1492885527076863995,37.4258677014,-122.076347176,-26.8755385789
1492885527275945124,37.4258817992,-122.076340395,-26.8344192759
1492885527376387618,37.4258890266,-122.076336883,-26.8138720546
1492885527476492076,37.4258964109,-122.07633317,-26.7892823565
1492885527776545357,37.4259191912,-122.076321151,-26.7059990402
1492885527876042673,37.4259268532,-122.076317007,-26.6751227739
1492885527976546205,37.4259344449,-122.076312689,-26.6523656759
1492885528077532155,37.4259419979,-122.076308124,-26.6280155243
1492885528198553520,37.4259494265,-122.076303429,-26.6068539889
1492885528275575033,37.4259567945,-122.07629863,-26.5855722068
1492885528376010721,37.4259640504,-122.07629369,-26.5703127074
1492885528476037837,37.4259712466,-122.076288445,-26.5513059986
1492885528603011308,37.4259783248,-122.076282991,-26.5306728963
1492885528679065851,37.4259852841,-122.07627742,-26.5187672258
1492885528776688628,37.4259922302,-122.076271823,-26.506932951
1492885528876687510,37.4259990184,-122.076265916,-26.4917644776
1492885529077188340,37.4260121552,-122.076253618,-26.4596686874
1492885529176698762,37.4260185753,-122.076247377,-26.4480377523
1492885529275712005,37.4260248457,-122.076240985,-26.4363286709
1492885529376746640,37.4260310881,-122.07623445,-26.4171482556
1492885529476768134,37.4260372238,-122.076227846,-26.3993945475
1492885529676778988,37.4260491713,-122.07621435,-26.3872007898
1492885529776801610,37.4260549883,-122.076207383,-26.3699996258
1492885529876183290,37.4260607313,-122.076200378,-26.3537886564
1492885529975730144,37.4260663392,-122.076193256,-26.3394727563
1492885530077212528,37.4260718622,-122.076186108,-26.321907139
1492885530198244989,37.4260773043,-122.076178972,-26.3051340963
1492885530276805958,37.4260826233,-122.076171729,-26.2949232019
1492885530603914366,37.426097982,-122.076149639,-26.2521001723
1492885530676924752,37.4261027577,-122.076142029,-26.2366182522
1492885530776979649,37.4261074746,-122.076134486,-26.2166252211
1492885530876947536,37.4261121378,-122.076126935,-26.1998885357
1492885530976919090,37.4261167642,-122.07611934,-26.1826201581
1492885531177019641,37.4261260153,-122.076104469,-26.1564145757
1492885531276026482,37.4261305975,-122.076097223,-26.1453303213
1492885531376970026,37.4261351398,-122.076090031,-26.1366183969
1492885531476942459,37.4261396766,-122.076082956,-26.1312343269
1492885531604435636,37.4261441631,-122.076076083,-26.127299757
1492885531777461098,37.4261530646,-122.076062932,-26.1224365739
1492885531976513128,37.426161989,-122.076050627,-26.1198000656
1492885532196086784,37.4261710436,-122.076039187,-26.1188352324
1492885532277142401,37.426175468,-122.076033649,-26.1192187149
1492885532377153193,37.4261798146,-122.076028158,-26.1230876739
1492885532477161774,37.4261840519,-122.076022777,-26.1277046834
1492885532677180808,37.4261924591,-122.076012612,-26.1402882401
1492885532777679737,37.4261965452,-122.076007726,-26.1437523734
1492885532878237539,37.4262006346,-122.076002958,-26.1479337777
1492885532977661149,37.4262047182,-122.075998424,-26.1572827645
1492885533078655039,37.4262088474,-122.075994111,-26.1667659213
1492885533177668784,37.426212946,-122.075989977,-26.1785595329
1492885533277672113,37.4262169859,-122.075986039,-26.1888516891
1492885533377177345,37.4262209873,-122.075982345,-26.1957694016
1492885533477712678,37.4262250051,-122.075978943,-26.2045071691
1492885533604703577,37.426229056,-122.075975809,-26.2113268102
1492885533677708661,37.4262330587,-122.075972893,-26.2293200195
1492885533778285274,37.4262370347,-122.075970105,-26.2410587778
1492885533877318507,37.4262409982,-122.075967484,-26.253452661
1492885533977342391,37.4262449398,-122.075965124,-26.2645641621
1492885534077353555,37.4262488733,-122.075963078,-26.2779863198
1492885534196860451,37.4262527795,-122.07596131,-26.2857552177
1492885534377415128,37.4262603471,-122.075958176,-26.3069549512
1492885534676873305,37.4262712194,-122.075954379,-26.3652031626
1492885534775897894,37.4262747581,-122.075953428,-26.3799086106
1492885534875877112,37.4262781889,-122.075952737,-26.3906234732
1492885535176950853,37.4262878531,-122.075951506,-26.4233966906
1492885535276532687,37.4262908909,-122.075951277,-26.4438259249
1492885535376548324,37.4262938261,-122.075951079,-26.4548937593
1492885535476564059,37.4262967258,-122.075951,-26.4644229812
1492885535604555743,37.4262995104,-122.075951065,-26.4698459653
1492885535677085645,37.4263021986,-122.075951221,-26.4767681751
1492885535776553573,37.4263047642,-122.07595139,-26.4838152359
1492885536076619351,37.4263117933,-122.075952685,-26.5100686138
1492885536197618094,37.4263139423,-122.07595315,-26.51139268
1492885536276036876,37.4263159507,-122.075953615,-26.5156999315
1492885536376085304,37.426317896,-122.075954162,-26.5188135023
1492885536476113974,37.4263197829,-122.075954786,-26.5238492347
1492885536603584191,37.4263216296,-122.075955481,-26.5308895299
1492885536677137715,37.4263234101,-122.075956221,-26.5434883214
1492885536776108678,37.4263251737,-122.075957052,-26.5503660545
1492885536976256242,37.4263286375,-122.075958833,-26.5540559729
1492885537076838222,37.4263303176,-122.075959839,-26.5649718357
1492885537175699391,37.4263319538,-122.075960921,-26.577053321
1492885537475790348,37.4263368127,-122.075964369,-26.5917825992
1492885537603793326,37.4263383941,-122.07596559,-26.5942864583
1492885537677277295,37.4263398917,-122.075966864,-26.6024964974
1492885537777292317,37.4263412717,-122.075968287,-26.606475142
1492885537876279830,37.4263426168,-122.075969806,-26.609527746
1492885537976294097,37.4263439439,-122.075971338,-26.6134551451
1492885538077308931,37.4263453226,-122.075972929,-26.6145573015
1492885538196319052,37.4263466511,-122.075974626,-26.6136575917
1492885538275932175,37.4263479849,-122.075976501,-26.6130054416
1492885538376444877,37.4263492776,-122.075978543,-26.6181382421
1492885538475959750,37.426350569,-122.075980763,-26.6244262868
1492885538601930126,37.4263518198,-122.075983087,-26.6339330294
1492885538775975559,37.4263539267,-122.075988071,-26.6482817645
1492885538875996323,37.4263548086,-122.075990676,-26.6461163261
1492885538976011039,37.4263556201,-122.075993317,-26.641389085
1492885539076435713,37.4263563564,-122.07599598,-26.6421282927
1492885539175477910,37.4263569912,-122.075998699,-26.6467027174
1492885539275495190,37.4263574777,-122.076001456,-26.6480739571
1492885539375511794,37.4263578442,-122.076004221,-26.6423158912
1492885539475509825,37.4263581813,-122.076006966,-26.6425675849
1492885539603482275,37.4263585071,-122.076009765,-26.640066967
1492885539685570554,37.4263586226,-122.076012682,-26.6500345586
1492885539777137528,37.4263585458,-122.076015762,-26.6502078811
1492885539877102967,37.4263582758,-122.076019031,-26.654259894
1492885540077129048,37.4263573152,-122.076026299,-26.6724112228
1492885540200147647,37.4263564811,-122.07603034,-26.669637212
1492885540476645168,37.426351787,-122.076043244,-26.644997181
1492885540681671522,37.4263464387,-122.076052157,-26.649112442
1492885540776668676,37.4263431112,-122.076056558,-26.6414976135
1492885540877681016,37.4263394504,-122.076060896,-26.633045472
1492885540976729490,37.4263354742,-122.076065222,-26.6246563965
1492885541077704734,37.426331214,-122.076069476,-26.6148506575
1492885541177319991,37.4263266639,-122.076073611,-26.5996280978
1492885541277340095,37.4263217522,-122.076077648,-26.587667694
1492885541476868433,37.4263110657,-122.076085573,-26.5684299258
1492885541677382633,37.4262996022,-122.076093809,-26.5482387926
1492885541877423810,37.4262876596,-122.076102524,-26.5280791998
1492885541976798858,37.4262815288,-122.076107033,-26.5218429339
1492885542077890265,37.4262752785,-122.076111552,-26.5081545047
1492885542196847556,37.4262689066,-122.076116118,-26.4904457073
1492885542276892783,37.4262625391,-122.076120762,-26.4789627466
1492885542376879013,37.4262561678,-122.076125516,-26.4694634121
1492885542476925388,37.4262497756,-122.076130347,-26.4637391393
1492885542603992155,37.4262433553,-122.076135207,-26.4632929606
1492885542876534572,37.4262239468,-122.076150206,-26.4547087587
1492885542976557223,37.4262175175,-122.076155378,-26.4519330767
1492885543077571834,37.4262111147,-122.076160577,-26.4468583966
1492885543176587630,37.4262047278,-122.076165808,-26.4428432583
1492885543277107400,37.4261984061,-122.07617107,-26.4406866237
1492885543376005747,37.426192136,-122.076176397,-26.4408266033
1492885543477002151,37.426185887,-122.07618175,-26.4401696734
1492885543604066655,37.4261796556,-122.07618714,-26.4417574464
1492885543677046023,37.4261734717,-122.076192579,-26.4449998697
1492885543776608535,37.4261672682,-122.07619804,-26.441443019
1492885543877604413,37.4261610622,-122.07620354,-26.4388417579
1492885543976072373,37.4261549417,-122.076208998,-26.4365129929
1492885544196622881,37.4261429078,-122.07622003,-26.442997281
1492885544276686652,37.4261370009,-122.076225737,-26.4511833969
1492885544376740072,37.4261311318,-122.076231547,-26.4529830328
1492885544476775166,37.4261253404,-122.076237406,-26.4550025884
1492885544603781147,37.4261196028,-122.076243331,-26.4642003167
1492885544676827268,37.4261139046,-122.076249369,-26.4767959283
1492885544875844395,37.4261025343,-122.076262011,-26.4859472823
1492885544975786200,37.4260968618,-122.076268728,-26.4848591237
1492885545076216038,37.42609123,-122.076275638,-26.4843239558
1492885545175755498,37.4260856399,-122.076282723,-26.4900707116
1492885545275293729,37.4260800765,-122.076289973,-26.5040336078
1492885545375262034,37.42607459,-122.076297337,-26.5249078987
1492885545473297286,37.4260691527,-122.076304918,-26.5427029323
1492885545600864676,37.4260637838,-122.076312749,-26.5590550765
1492885545675902928,37.4260584245,-122.076320785,-26.5786840064
1492885545775889670,37.4260530567,-122.076329102,-26.5966806675
1492885545875954361,37.4260476733,-122.076337657,-26.6153956585
1492885546075960711,37.4260366063,-122.076355361,-26.6471634028
1492885546197966427,37.4260310133,-122.07636451,-26.6704571384
1492885546275901977,37.426025384,-122.076373745,-26.6986811368
1492885546375418163,37.4260196597,-122.076383085,-26.7248743295
1492885546475428042,37.4260138931,-122.07639245,-26.7480131576
1492885546603461746,37.4260081822,-122.076401899,-26.7743792567
1492885546675957120,37.4260023996,-122.076411503,-26.7981087172
1492885546777441516,37.4259964891,-122.076421254,-26.8078921583
1492885546976479160,37.4259845152,-122.076441139,-26.8311069487
1492885547077129596,37.4259784118,-122.076451069,-26.8630947208
1492885547176624926,37.4259723499,-122.076460976,-26.9072994035
1492885547276090008,37.4259661293,-122.076470882,-26.9474225438
1492885547376103777,37.4259598166,-122.076480791,-26.9815803851
1492885547476118625,37.4259534575,-122.076490668,-27.0151639515
1492885547604156360,37.4259469671,-122.07650052,-27.0417078813
1492885547677146158,37.4259403196,-122.076510283,-27.0664943784
1492885547777177727,37.4259336651,-122.076520077,-27.0937568835
1492885547876588218,37.4259269615,-122.076529808,-27.1241177852
1492885547976609792,37.4259201432,-122.076539543,-27.1515106497
1492885548198625720,37.4259061951,-122.07655887,-27.2122078941
1492885548376661975,37.425891721,-122.076577562,-27.286598271
1492885548604265514,37.4258768114,-122.076595959,-27.3533147175
1492885548677301146,37.4258691457,-122.076605035,-27.386368703
1492885548776287119,37.4258613951,-122.076613987,-27.4264633779
1492885548876355150,37.4258536128,-122.076622704,-27.4700132733
1492885548976867498,37.4258456798,-122.076631209,-27.5187555409
1492885549177377125,37.4258294219,-122.076647766,-27.5887769419
1492885549276900611,37.4258210954,-122.076655717,-27.6106731088
1492885549476832843,37.4258044031,-122.076671128,-27.6577158506
1492885549602850333,37.4257958876,-122.076678493,-27.663448849
1492885549685851407,37.4257872754,-122.07668556,-27.6759551753
1492885549777884985,37.4257785824,-122.076692189,-27.6825717087
1492885549877406531,37.4257699399,-122.076698391,-27.7045153647
1492885549976917104,37.4257612164,-122.076704135,-27.7309669709
1492885550077906474,37.4257524637,-122.076709523,-27.7559077203
1492885550197915827,37.4257436069,-122.07671458,-27.7716351031
1492885550377500215,37.4257256707,-122.076724005,-27.7657402645
1492885550477546601,37.4257167435,-122.07672824,-27.7625141692
1492885550603530561,37.4257079395,-122.076732101,-27.7671306808
1492885550777634275,37.4256905462,-122.076738772,-27.7854810328
1492885550876610391,37.4256819423,-122.076741368,-27.7850527965
1492885551078066175,37.4256649876,-122.076745138,-27.7990294745
1492885551177057102,37.4256566527,-122.076746283,-27.8008560886
1492885551277039197,37.4256484462,-122.076746985,-27.8037393256
1492885551377070620,37.4256403305,-122.076747334,-27.7964047975
1492885551477068201,37.4256324139,-122.07674742,-27.7972683798
1492885551603106731,37.4256246206,-122.076747072,-27.7962468266
1492885551677092573,37.4256170534,-122.076746358,-27.8039827068
1492885551876731715,37.4256025992,-122.076743557,-27.821645778
1492885551976237814,37.4255956619,-122.076741593,-27.8324690152
1492885552076781214,37.4255887982,-122.076739104,-27.8341944446
1492885552199738201,37.4255820883,-122.076736097,-27.83400519
1492885552275807361,37.4255755009,-122.076732597,-27.8291617105
1492885552476831707,37.4255631481,-122.076724243,-27.8194441915
1492885552677284975,37.4255519443,-122.07671434,-27.8342630114
1492885552776247612,37.4255468279,-122.076708433,-27.834466833
1492885552877281671,37.4255419832,-122.076701958,-27.8464746109
1492885552976297715,37.4255372975,-122.076695027,-27.8350211896
1492885553077812371,37.4255331165,-122.076687518,-27.8479312487
1492885553177345153,37.4255289706,-122.076679771,-27.8543214207
1492885553276895056,37.4255252877,-122.076671525,-27.859836898
1492885553376949846,37.4255221543,-122.076662922,-27.8656436465
1492885553477411724,37.4255194652,-122.076654105,-27.8685027011
1492885553603429292,37.4255173186,-122.076645125,-27.8676726045
1492885553877046004,37.4255140878,-122.076616921,-27.8646382922
1492885553977045503,37.4255143098,-122.07660734,-27.8635663253
1492885554078055343,37.4255148623,-122.076597859,-27.8635958324
1492885554199006752,37.4255159175,-122.076588463,-27.8627292331
1492885554276463891,37.4255177185,-122.076579151,-27.8657104013
1492885554376529053,37.4255200622,-122.076569895,-27.8618311199
1492885554476476698,37.4255227922,-122.076560705,-27.8524410518
1492885554602530157,37.4255260697,-122.076551774,-27.8535346525
1492885554677509747,37.4255297176,-122.076543169,-27.8718224303
1492885554877175250,37.4255383865,-122.076526802,-27.9023499365
1492885554977197751,37.425543682,-122.07651912,-27.8901818705
1492885555277265070,37.4255617055,-122.076498549,-27.8596823477
1492885555375749620,37.4255681787,-122.076492291,-27.8583567462
1492885555476176809,37.4255749913,-122.076486362,-27.8370186373
1492885555602222482,37.4255821313,-122.076480953,-27.8020375225
1492885555680228303,37.4255895538,-122.076475953,-27.7699895168
1492885555775667982,37.4255972773,-122.076471613,-27.7360655097
1492885555875727115,37.4256053083,-122.076468208,-27.7075084968
1492885556075712858,37.4256219564,-122.076462961,-27.652109957
1492885556198750210,37.4256305892,-122.076461262,-27.6250551206
1492885556275290299,37.4256393102,-122.076459784,-27.6013064832
1492885556375304727,37.425648131,-122.076458637,-27.5756106382
1492885556598331661,37.4256661366,-122.076456843,-27.5215004281
1492885556675368354,37.4256753511,-122.076456113,-27.4879461415
1492885556775380780,37.4256847156,-122.076455618,-27.4555854907
1492885556875415178,37.4256941233,-122.076455221,-27.4339667601
1492885556975409338,37.425703648,-122.076454897,-27.4162454396
1492885557075449307,37.4257132597,-122.076454779,-27.3930976364
1492885557174882718,37.4257230454,-122.076454639,-27.3646086235
1492885557374930578,37.4257428886,-122.076454154,-27.3012900374
1492885557474915246,37.4257529456,-122.076454011,-27.2747463142
1492885557599886400,37.425763104,-122.076453716,-27.2454003005
1492885557676950398,37.4257733627,-122.076453358,-27.2213311321
1492885557777010987,37.4257837667,-122.076452974,-27.1930429661
1492885558076534899,37.4258153093,-122.076450939,-27.1398490062
1492885558201569761,37.4258259448,-122.076449641,-27.118170976
1492885558275566908,37.4258366504,-122.076447837,-27.0931990189
1492885558375616612,37.4258474413,-122.076445664,-27.0615982626
1492885558475615475,37.4258582956,-122.076443247,-27.0312942442
1492885558600671514,37.4258692102,-122.076440515,-27.0102862815
1492885558679630777,37.4258802116,-122.076437655,-26.9886206182
1492885558875101848,37.4259023769,-122.076430906,-26.9309990993
1492885558975099155,37.4259134815,-122.07642683,-26.8936484704
1492885559077126240,37.4259245453,-122.076422198,-26.8581505509
1492885559176101035,37.4259355933,-122.076417142,-26.8274758217
1492885559376192922,37.4259575544,-122.076405792,-26.7770554336
1492885559475719761,37.425968397,-122.076399518,-26.7653967373
1492885559600732675,37.4259791286,-122.076392721,-26.758815546
1492885559676767119,37.4259896121,-122.07638535,-26.7515933779
1492885559776280640,37.4259998578,-122.076377389,-26.7323179725
1492885559875802284,37.4260098605,-122.076368892,-26.7018260885
1492885559975809462,37.4260196862,-122.076359981,-26.6632777415
1492885560076881626,37.4260292618,-122.076350666,-26.6285310302
1492885560197838431,37.4260385847,-122.076340947,-26.5973386776
1492885560275853158,37.4260476374,-122.076330952,-26.5691655225
1492885560375282613,37.4260563924,-122.076320689,-26.5462131368
1492885560476269683,37.4260648252,-122.076310069,-26.5279149351
1492885560598287418,37.4260729198,-122.076299131,-26.517475948
1492885560776337926,37.4260882067,-122.076276387,-26.4846690663
1492885560875954622,37.4260953844,-122.076264583,-26.4647896951
1492885560976437059,37.4261022692,-122.076252604,-26.452434403
1492885561077930504,37.4261089719,-122.076240611,-26.4449263709
1492885561176970416,37.4261152692,-122.076228467,-26.4361319457
1492885561276973308,37.4261212006,-122.076216185,-26.4244238224
1492885561376500645,37.4261268829,-122.076203782,-26.4046458174
1492885561476512144,37.426132199,-122.076191222,-26.3694565794
1492885561676458583,37.4261420372,-122.076165895,-26.3103152155
1492885561776448714,37.4261465598,-122.076153278,-26.2911176709
1492885562076501274,37.4261592818,-122.076116133,-26.2549046062
1492885562201075531,37.4261638504,-122.076104108,-26.2442679068
1492885562275610870,37.4261685635,-122.076092278,-26.2313342737
1492885562601155992,37.4261842377,-122.076058292,-26.1834939186
1492885562677164927,37.426189874,-122.076047579,-26.1858145599
1492885562876601856,37.4262017163,-122.076027374,-26.1906215881
1492885562976637806,37.4262079536,-122.076017916,-26.1951743628
1492885563077696324,37.4262144313,-122.076008921,-26.2032285263
1492885563176656186,37.4262210546,-122.076000331,-26.2183530661
1492885563476674924,37.4262419962,-122.075977636,-26.2652770993
1492885563678356965,37.4262568203,-122.075965031,-26.3011972885
1492885563776316126,37.4262644128,-122.075959649,-26.3243077865
1492885563877327730,37.4262720682,-122.075954709,-26.3511098888
1492885563976357024,37.4262797419,-122.075950245,-26.3863383129
1492885564077829490,37.4262873644,-122.075946346,-26.4157282351
1492885564198361181,37.4262948579,-122.075943037,-26.4434190717
1492885564276389468,37.426302194,-122.075940297,-26.4768080622
1492885564376424541,37.4263094068,-122.07593809,-26.4990864514
1492885564476389399,37.4263165297,-122.075936507,-26.5178377786
1492885564601397001,37.4263235063,-122.0759355,-26.5301333821
1492885564876890955,37.4263428303,-122.075934754,-26.5898703713
1492885564976902777,37.4263486599,-122.075934964,-26.6207617158
1492885565077918338,37.4263541701,-122.075935587,-26.6448349489
1492885565175941590,37.4263593587,-122.075936634,-26.662375185
1492885565276917683,37.4263642491,-122.075937956,-26.6747695903
1492885565378028258,37.4263689251,-122.075939268,-26.6905727365
1492885565478552047,37.4263733811,-122.075940579,-26.6994355135
1492885565604533294,37.4263775499,-122.07594211,-26.7045757262
1492885565678543290,37.4263813923,-122.075943755,-26.7090497332
1492885565777092833,37.4263848755,-122.075945461,-26.7104790678
1492885565876597904,37.4263880533,-122.075947114,-26.7166356692
1492885565977589583,37.4263909974,-122.075948657,-26.7324302421
1492885566078137727,37.4263937272,-122.075950077,-26.7514941697
1492885566196609123,37.4263961575,-122.075951494,-26.7614366108
1492885566276068614,37.4263983207,-122.075952902,-26.7749641106
1492885566376110356,37.4264003012,-122.075954233,-26.7811576781
1492885566476126988,37.4264021123,-122.075955408,-26.7790974937
1492885566602087805,37.4264037076,-122.07595654,-26.7787767912
1492885566677120332,37.42640509,-122.07595761,-26.7820166366
1492885566776745787,37.4264062488,-122.075958515,-26.7837612093
1492885566876733111,37.4264072761,-122.0759593,-26.7906556402
1492885566976782859,37.4264081845,-122.075959975,-26.7982426592
1492885567077760983,37.4264090291,-122.075960604,-26.8079851522
1492885567176292547,37.4264098223,-122.075961266,-26.8115535338
1492885567275781297,37.4264105634,-122.075961925,-26.814566163
1492885567376816209,37.4264113207,-122.075962487,-26.8115366505
1492885567602272975,37.4264126901,-122.075963596,-26.8118969507
1492885567677261764,37.4264132639,-122.075964084,-26.8148452292
1492885567776274261,37.4264137977,-122.075964605,-26.8146583699
1492885567876287202,37.4264142635,-122.075965053,-26.8146559946
1492885568077337950,37.4264150964,-122.075965789,-26.8190470227
1492885568200918198,37.426415459,-122.07596608,-26.818839836
1492885568275922885,37.4264157726,-122.075966354,-26.8181412495
1492885568375930871,37.4264160509,-122.07596659,-26.8174329165
1492885568475949404,37.426416268,-122.075966815,-26.8187399801
1492885568601936311,37.4264164429,-122.075966974,-26.819186533
1492885568675964161,37.4264165711,-122.07596707,-26.8200094828
1492885568776454366,37.4264166485,-122.075967162,-26.8199339867
1492885569076948768,37.4264167932,-122.0759673,-26.8196606975
1492885569175991115,37.4264168261,-122.075967307,-26.8183153923
1492885569275529791,37.4264168581,-122.07596732,-26.8182165568
1492885569375483567,37.4264168946,-122.075967364,-26.8206661442
1492885569676521109,37.426417216,-122.075967651,-26.8227776037
1492885569776561179,37.4264173968,-122.075967838,-26.8272275752
1492885569876151714,37.4264176438,-122.075968062,-26.8248637083
1492885569976128043,37.426417992,-122.075968393,-26.8270117622
1492885570077160034,37.4264184429,-122.075968813,-26.8255034281
1492885570201164255,37.4264189887,-122.075969326,-26.8300108447
1492885570376173821,37.4264202384,-122.075970573,-26.8258798603
1492885570476203583,37.4264209961,-122.075971285,-26.8286933977
1492885570676636758,37.4264227744,-122.075973127,-26.8378431125
1492885570776229722,37.4264238649,-122.075974349,-26.8426688497
1492885570875683905,37.4264250823,-122.075975858,-26.8465501245
1492885570975671556,37.4264263823,-122.075977692,-26.8449153281
1492885571175299775,37.4264292703,-122.075982443,-26.8416468366
1492885571275871526,37.4264307722,-122.075985344,-26.8479824748
1492885571376353060,37.4264322721,-122.075988652,-26.8617598228
1492885571475874977,37.426433686,-122.075992433,-26.8614131982
1492885571599389506,37.4264349734,-122.075996718,-26.856614152
1492885571776398329,37.4264371583,-122.076006447,-26.8623663175
1492885571877455982,37.426437756,-122.076011861,-26.8633853521
1492885571977384203,37.4264380039,-122.076017566,-26.866901707
1492885572077877578,37.4264378931,-122.076023478,-26.8692715258
1492885572209895800,37.4264373891,-122.076029593,-26.8755693011
1492885572276873631,37.4264364445,-122.07603589,-26.8775836312
1492885572376378958,37.4264350469,-122.076042299,-26.879313374
1492885572476931333,37.4264332828,-122.076048737,-26.8720027133
1492885572602464004,37.4264310766,-122.076055179,-26.852613715
1492885572677498785,37.4264282224,-122.076061503,-26.8431260404
1492885572776539997,37.4264248389,-122.076067728,-26.842321463
1492885572877532767,37.4264210115,-122.076073817,-26.8513159808
1492885572974495459,37.4264166463,-122.076079788,-26.8359818813
1492885573077574300,37.4264118214,-122.07608556,-26.8180686012
1492885573177573071,37.4264066698,-122.076091179,-26.8073122007
1492885573276999336,37.4264011964,-122.07609674,-26.8004905311
1492885573377041654,37.426395413,-122.076102266,-26.7955039677
1492885573477076498,37.4263893234,-122.07610771,-26.7864454266
1492885573777039639,37.4263695898,-122.076124949,-26.7506070397
1492885573877657957,37.4263623424,-122.076130643,-26.7324691886
1492885574077692015,37.4263469275,-122.076141629,-26.7159879866
1492885574200727346,37.4263388171,-122.076146838,-26.7113258045
1492885574477166663,37.4263131608,-122.076160805,-26.694461626
1492885574603156798,37.4263041784,-122.076164784,-26.6723862975
1492885574681215347,37.4262950248,-122.076168311,-26.6525764398
1492885574777202244,37.4262856468,-122.076171546,-26.6278850456
1492885574877236948,37.4262760912,-122.076174541,-26.6025882753
1492885574977233415,37.4262663338,-122.07617723,-26.5762274323
1492885575077825998,37.4262564453,-122.076179586,-26.5603589553
1492885575176831684,37.4262463959,-122.076181595,-26.5450083135
1492885575377380005,37.4262259074,-122.076184773,-26.5156474182
1492885575476915417,37.4262154363,-122.07618591,-26.4953317645
1492885575602870154,37.426204824,-122.076186917,-26.4768438553
1492885575876930850,37.4261722321,-122.076189698,-26.4408505247
1492885575976940520,37.4261611675,-122.076190552,-26.427456642
1492885576077875127,37.426149964,-122.076191456,-26.4114455468
1492885576204376411,37.4261385774,-122.07619218,-26.3812369566
1492885576277434334,37.4261270268,-122.076192824,-26.3539468312
1492885576376430244,37.426115442,-122.076193423,-26.3399192069
1492885576475452954,37.426103821,-122.076194184,-26.3385886816
1492885576601474667,37.4260921547,-122.076195151,-26.3412471496
1492885576676540936,37.4260805415,-122.076196104,-26.3548360714
1492885576776050245,37.4260689222,-122.076197188,-26.3652375099
1492885576876118064,37.426057248,-122.076198271,-26.3626526909
1492885576977095859,37.4260455366,-122.076199299,-26.3508829522
1492885577275181007,37.4260101289,-122.07620143,-26.3162631911
1492885577376150236,37.4259982987,-122.076202096,-26.3268526902
1492885577476152946,37.4259864984,-122.076202895,-26.3494797629
1492885577601588195,37.4259747721,-122.076203535,-26.3810642019
1492885577676615407,37.4259631071,-122.076204162,-26.419683522
1492885577775641325,37.4259515106,-122.076204662,-26.4477569356
1492885577875645442,37.4259399597,-122.076205115,-26.4642677071
1492885577975641256,37.4259284051,-122.07620545,-26.4747036151
1492885578077692868,37.4259169181,-122.07620577,-26.4817552661
1492885578202679752,37.425905548,-122.076205989,-26.5015737896
1492885578276274927,37.4258943357,-122.076206113,-26.5376147816
1492885578376294848,37.4258833444,-122.076206136,-26.576899283
1492885578600272061,37.4258619681,-122.076206389,-26.6706137585
1492885578676277815,37.4258514096,-122.076206356,-26.6977651582
1492885578776308199,37.4258409684,-122.076206434,-26.7209193515
1492885578876350555,37.4258306895,-122.076206471,-26.7429320577
1492885578976340293,37.4258206216,-122.076206438,-26.7723331811
1492885579077384350,37.4258107337,-122.076206435,-26.8040236488
1492885579176816756,37.4258010374,-122.076206587,-26.8367607008
1492885579275822635,37.4257915384,-122.076206854,-26.8728192675
1492885579375852154,37.4257822198,-122.0762072,-26.9092892613
1492885579476854990,37.4257729998,-122.076207767,-26.9390719388
1492885579602821712,37.4257640089,-122.076208548,-26.9709333851
1492885579676858604,37.4257552466,-122.076209495,-26.9995992487
1492885579776482711,37.4257467054,-122.076210703,-27.0338377359
1492885579874391449,37.425738423,-122.076212188,-27.0665800679
1492885580077492755,37.4257226086,-122.076215833,-27.1320112285
1492885580201541570,37.4257150844,-122.076217919,-27.1613900485
1492885580277021081,37.4257078046,-122.076220183,-27.1928413464
1492885580376528099,37.4257007491,-122.076222658,-27.2254150423
1492885580477580137,37.4256939508,-122.076225312,-27.2521448801
1492885580602535135,37.4256874354,-122.076228187,-27.2740064707
1492885580676999540,37.4256812027,-122.076231205,-27.3099865122
1492885580776509181,37.4256753003,-122.076234353,-27.3434794642
1492885580876023670,37.4256696617,-122.076237566,-27.3727076313
1492885580976038597,37.4256642515,-122.076240823,-27.391998345
1492885581077065504,37.425659058,-122.076243951,-27.4131849777
1492885581377662963,37.4256447809,-122.076253955,-27.4775469141
1492885581478702978,37.4256403427,-122.07625747,-27.4965206537
1492885581605715385,37.4256360676,-122.07626103,-27.5134240082
1492885581678702181,37.4256319363,-122.076264554,-27.5277106475
1492885581778768972,37.4256279437,-122.076268047,-27.5448246563
1492885581878752587,37.425624107,-122.076271462,-27.5614521909
1492885581977743079,37.4256204275,-122.076274906,-27.577859551
1492885582079182813,37.4256168491,-122.076278498,-27.5961239665
1492885582201189602,37.4256133658,-122.076282323,-27.6112705785
1492885582278256131,37.425609889,-122.076286254,-27.6301965715
1492885582378239109,37.4256065066,-122.076290288,-27.6508024892
1492885582603823780,37.4256001432,-122.076298929,-27.6846309816
1492885582678836818,37.4255971273,-122.076303456,-27.7007351901
1492885582778884510,37.4255942034,-122.076308097,-27.7137450264
1492885582878389860,37.4255913748,-122.076312878,-27.7275815245
1492885582977857089,37.4255887079,-122.076317796,-27.7390262928
1492885583078907198,37.4255862911,-122.076323039,-27.7433339418
1492885583177431081,37.4255841264,-122.076328564,-27.745778621
1492885583277425478,37.4255821334,-122.076334378,-27.7486549814
1492885583377407994,37.4255803937,-122.076340535,-27.7537522165
1492885583605384057,37.4255781653,-122.076353721,-27.7615530288
1492885583677921427,37.4255774542,-122.076360667,-27.7579201782
1492885583778432743,37.4255770786,-122.076367816,-27.7580351665
1492885583878424802,37.4255771992,-122.076375116,-27.7561608377
1492885584077998335,37.4255789289,-122.076389952,-27.7375349044
1492885584204076854,37.4255804331,-122.076397549,-27.7346747011
1492885584278085010,37.4255825139,-122.0764051,-27.730297615
1492885584378126000,37.4255851114,-122.076412575,-27.7233548327
1492885584478096086,37.4255881176,-122.076419957,-27.7141026423
1492885584605091080,37.4255913639,-122.076427508,-27.7122872025
1492885584678021428,37.4255951605,-122.07643468,-27.6914896019
1492885584778539225,37.42559938,-122.076441414,-27.6808980127
1492885584877550966,37.4256037948,-122.076447846,-27.6759983486
1492885584977563132,37.4256084385,-122.076454012,-27.6840321447
1492885585078077405,37.4256136005,-122.076459691,-27.6762059863
1492885585177585133,37.4256191657,-122.076464913,-27.6559569815
1492885585478236785,37.4256374594,-122.076476899,-27.6054089454
1492885585605226159,37.4256439522,-122.07647952,-27.592679625
1492885585678234590,37.4256506298,-122.076481518,-27.5919982191
1492885585778280446,37.4256574764,-122.076482939,-27.5811514447
1492885585878270419,37.4256644265,-122.076483933,-27.5663854473
1492885586078294183,37.4256783635,-122.076484335,-27.5319388539
1492885586205317648,37.4256853458,-122.076483915,-27.5141648421
1492885586277864304,37.4256924018,-122.076482801,-27.4862912233
1492885586477765379,37.4257063435,-122.076478699,-27.4376390521
1492885586604808359,37.4257132716,-122.076475968,-27.4202824696
1492885586777802008,37.4257268045,-122.076468639,-27.3626606896
1492885586877815405,37.4257334385,-122.076464188,-27.3378172148
1492885586976424298,37.4257399943,-122.076459237,-27.3122604781
1492885587077449742,37.4257466629,-122.076454113,-27.2884583427
1492885587176416398,37.4257533988,-122.076448851,-27.2602762321
1492885587275501788,37.4257602711,-122.076443499,-27.2332091852
1492885587376518246,37.4257672706,-122.076438039,-27.2141564511
1492885587476508176,37.4257743941,-122.076432263,-27.190380774
1492885587603892429,37.425781713,-122.076426232,-27.1555946732
1492885587676928773,37.4257891631,-122.076419979,-27.1284045088
1492885587776411953,37.4257967551,-122.076413637,-27.0893591879
1492885587876960346,37.4258044374,-122.076407132,-27.0610289441
1492885587975959192,37.4258121974,-122.076400527,-27.0388373948
1492885588199966501,37.4258282693,-122.076386794,-26.9964525329
1492885588276108734,37.4258366361,-122.07637963,-26.9716260007
1492885588376168998,37.4258452023,-122.076372316,-26.9465690274
1492885588603605351,37.4258628387,-122.076356825,-26.9003411432
1492885588676616236,37.4258718855,-122.07634878,-26.8786924788
1492885588776679587,37.4258811421,-122.076340693,-26.8494529897
1492885588876668785,37.4258905994,-122.076332656,-26.8092446256
1492885588975678759,37.4259002057,-122.076324491,-26.7645671584
1492885589175747638,37.4259197642,-122.076307821,-26.6681503998
1492885589276161016,37.4259296956,-122.076299267,-26.6259443798
1492885589376152161,37.4259397936,-122.076290705,-26.5867182551
1492885589602156735,37.4259600366,-122.07627323,-26.5262669596
1492885589677212184,37.4259701708,-122.076264436,-26.5054620462
1492885589776792783,37.4259802669,-122.07625557,-26.4812807824
1492885589975842352,37.4260003012,-122.076238078,-26.437348561
1492885590077850973,37.4260102722,-122.076229321,-26.4166267948
1492885590202368415,37.4260202115,-122.076220506,-26.3933527402
1492885590276888495,37.426030091,-122.076211564,-26.3688529398
1492885590376395248,37.4260399879,-122.076202613,-26.3416236912
1492885590476861033,37.4260498914,-122.076193693,-26.3209474371
1492885590680352219,37.4260699419,-122.076175875,-26.3064554361
1492885591077961236,37.4261117718,-122.076140078,-26.2490156611
1492885591176982741,37.4261224943,-122.076130818,-26.2387252868
1492885591377025288,37.4261445183,-122.076112137,-26.2157878676
1492885591477064337,37.4261557405,-122.07610284,-26.2124044924
1492885591604534755,37.4261670149,-122.076093661,-26.2147239946
1492885591677081839,37.4261783495,-122.076084502,-26.2298018077
1492885591877482843,37.4262012843,-122.076066414,-26.2599996852
1492885592079056993,37.4262242373,-122.0760486,-26.3017927819
1492885592200546503,37.4262357693,-122.076039831,-26.3233100874
1492885592277586307,37.42624736,-122.076031048,-26.3539966318
1492885592377575056,37.4262588777,-122.07602224,-26.3824956697
1492885592477166189,37.4262703151,-122.076013855,-26.4113522964
1492885592677169607,37.4262927761,-122.075997504,-26.4586980312
1492885592777193615,37.4263039567,-122.075989558,-26.4734657022
1492885592877198759,37.4263149421,-122.075981615,-26.499925478
1492885592977192560,37.4263257729,-122.07597369,-26.5343552623
1492885593078261140,37.4263364681,-122.075965799,-26.573003991
1492885593177246543,37.4263470322,-122.075958032,-26.6184026035
1492885593276678487,37.4263574938,-122.075950304,-26.6554921113
1492885593376687622,37.4263678939,-122.075942808,-26.6881312287
1492885593477700376,37.42637823,-122.075935621,-26.7188325221
1492885593602690710,37.4263885861,-122.075928591,-26.7504723919
1492885593677703347,37.4263987593,-122.075921782,-26.7815746224
1492885593777744971,37.4264087776,-122.075915128,-26.8121129632
1492885593877328277,37.4264185221,-122.075908498,-26.8526454397
1492885593977363366,37.426428104,-122.075901872,-26.9036818057
1492885594078380844,37.4264375986,-122.075895426,-26.947341522
1492885594203349994,37.4264470465,-122.075889283,-26.9779054333
1492885594277379071,37.4264564258,-122.07588339,-27.0073708122
1492885594377397494,37.4264656991,-122.075877761,-27.0303180384
1492885594477388150,37.4264748762,-122.075872557,-27.0504597632
1492885594677831360,37.426492828,-122.075862673,-27.1024068912
1492885594777399336,37.4265015379,-122.075858174,-27.1346280612
1492885594877860979,37.4265100088,-122.075854181,-27.1650838226
1492885594974856463,37.4265183281,-122.07585039,-27.198078369
1492885595077910198,37.4265266635,-122.075846783,-27.2145855655
1492885595177460114,37.4265349626,-122.075843686,-27.2163090292
1492885595277497757,37.4265432088,-122.075841023,-27.2151238982
1492885595377006712,37.4265513964,-122.075838383,-27.225340793
1492885595477051320,37.4265596078,-122.075835898,-27.235688696
1492885595604563289,37.426567864,-122.075833755,-27.2505259959
1492885595677572545,37.4265760457,-122.075831895,-27.280482791
1492885595777590414,37.4265842314,-122.075830395,-27.306004323
1492885595877626811,37.4265924447,-122.07582926,-27.3251341085
1492885595976641273,37.4266006722,-122.075828407,-27.3341072694
1492885596077626102,37.4266088757,-122.075827692,-27.3496004687
1492885596206056018,37.4266171003,-122.075827364,-27.3687726066
1492885596377109683,37.4266332142,-122.075828223,-27.3962093272
1492885596477083910,37.4266411828,-122.075829401,-27.4137043868
1492885596605116912,37.4266491759,-122.07583087,-27.4204926454
1492885596677117045,37.4266570661,-122.075832587,-27.4245811476
1492885596777152556,37.4266648773,-122.075834673,-27.4359324839
1492885596877737573,37.4266724871,-122.075837309,-27.4560403255
1492885596977224855,37.4266799096,-122.075840431,-27.479002717
1492885597077787610,37.4266871404,-122.075843829,-27.507879875
1492885597177824273,37.426694106,-122.075847539,-27.5253241414
1492885597276785031,37.4267007456,-122.075851874,-27.5370512071
1492885597376849023,37.4267071253,-122.075856687,-27.5489633724
1492885597475838971,37.4267132793,-122.07586201,-27.5408853892
1492885597603850887,37.4267191467,-122.075867766,-27.5238999464
1492885597675861161,37.4267247496,-122.075873818,-27.5318909459
1492885597876312649,37.4267342505,-122.075887359,-27.5458874849
1492885597976302548,37.4267384567,-122.075894559,-27.5695167924
1492885598077318512,37.4267420878,-122.0759022,-27.5959919569
1492885598207339298,37.4267452268,-122.075910072,-27.611843448
1492885598276316386,37.4267479831,-122.075918126,-27.6265045523
1492885598376328181,37.4267502587,-122.075926535,-27.6382155858
1492885598475992228,37.4267518944,-122.075935453,-27.6608961291
1492885598603462171,37.426753322,-122.075944641,-27.6663262003
1492885598676996939,37.4267542052,-122.075954052,-27.6591339178
1492885598776967044,37.4267543571,-122.075963629,-27.6580509538
1492885598876978528,37.4267538787,-122.075973255,-27.6614655502
1492885598976014505,37.4267528316,-122.075982966,-27.6805455814
1492885599276471911,37.4267456007,-122.076011947,-27.6912277119
1492885599376506954,37.4267420333,-122.076021331,-27.6986912269
1492885599476545208,37.4267377947,-122.07603042,-27.7121154391
1492885599603491159,37.426733021,-122.076039482,-27.700794227
1492885599676547887,37.4267277043,-122.076048233,-27.6976377554
1492885599776617194,37.426721768,-122.076056563,-27.6747437531
1492885599876687185,37.4267153824,-122.076064454,-27.6630908667
1492885599977154590,37.4267085755,-122.07607185,-27.6518188138
1492885600077662142,37.4267012612,-122.076078758,-27.6407083146
1492885600203223452,37.4266936395,-122.076085248,-27.6417917598
1492885600276155641,37.4266855603,-122.076091257,-27.6245853795
1492885600376203940,37.4266771514,-122.076096743,-27.6062670309
1492885600601656518,37.4266592976,-122.07610591,-27.5550057309
1492885600677682328,37.4266497945,-122.076109387,-27.5208497293
1492885600777703419,37.4266400009,-122.07611232,-27.4819168039
1492885600976716765,37.4266196707,-122.076116445,-27.4044473391
1492885601077270771,37.4266091959,-122.076117837,-27.3795726906
1492885601176834760,37.4265985427,-122.076118837,-27.3613765176
1492885601276325596,37.4265877436,-122.076119407,-27.3416530207
1492885601377333549,37.4265768031,-122.076119688,-27.3239792318
1492885601477348190,37.4265656752,-122.076119807,-27.2979276483
1492885601604341396,37.4265543097,-122.076120122,-27.254870667
1492885601677874868,37.4265427217,-122.076120944,-27.2092282285
1492885601776378255,37.4265310983,-122.076122069,-27.1697712526
1492885601975858357,37.4265077141,-122.076125608,-27.1018224042
1492885602076848972,37.426495931,-122.076128135,-27.0586352336
1492885602209863079,37.4264841786,-122.076131182,-27.0157221081
1492885602275918521,37.42647247,-122.076134633,-26.9781014559
1492885602375891435,37.4264608803,-122.076138404,-26.9553710789
1492885602475901968,37.4264494437,-122.076142677,-26.9346336607
1492885602600492497,37.4264381819,-122.076147539,-26.9125750084
1492885602776021911,37.4264164077,-122.076159017,-26.8707976596
1492885602875559940,37.4264058849,-122.076165611,-26.8474244729
1492885602975520227,37.4263956549,-122.076172631,-26.8220049139
1492885603076611799,37.4263858503,-122.076179797,-26.8006268153
1492885603475054398,37.426351771,-122.076209915,-26.7943520352
1492885603596553162,37.4263440451,-122.076218073,-26.8054965224
1492885603675087236,37.4263361811,-122.076226134,-26.8195129045
1492885603776052783,37.4263280374,-122.07623413,-26.8105217329
1492885603874116047,37.4263198437,-122.076241917,-26.8003734622
1492885604076694849,37.4263032425,-122.076256609,-26.789565502
1492885604204708791,37.4262950691,-122.076263731,-26.7885238816
1492885604274751676,37.4262867992,-122.076270817,-26.7791954894
1492885604374251611,37.4262784667,-122.076277582,-26.7703689576
1492885604974241292,37.4262259358,-122.07631063,-26.774624496
1492885605074746192,37.4262167401,-122.076314693,-26.764419523
1492885605174293268,37.4262074589,-122.076318456,-26.75859855
1492885605274260036,37.426197979,-122.076322262,-26.7472229353
1492885605373841248,37.4261885041,-122.076325977,-26.7463638741
1492885605473931877,37.4261787802,-122.076329714,-26.7476355258
1492885605589922260,37.426169005,-122.076333289,-26.7406996444
1492885605675422254,37.4261590012,-122.076336777,-26.7289171626
1492885605774442991,37.4261489048,-122.076339934,-26.7170905484
1492885606205993177,37.4261071247,-122.076353588,-26.6723316444
1492885606275986939,37.4260965079,-122.076357552,-26.6641545857
1492885606375437807,37.4260858672,-122.076361836,-26.6656949298
1492885606475464826,37.4260753568,-122.076366218,-26.6734134584
1492885606590481126,37.4260648152,-122.076370895,-26.6898395795
1492885606675463452,37.4260541525,-122.076375833,-26.7050340345
1492885606874555159,37.426032809,-122.076386187,-26.7319767182
1492885606974111776,37.4260220378,-122.076391769,-26.7374360015
1492885607075098567,37.4260112098,-122.076397658,-26.7432567189
1492885607174113698,37.4260004744,-122.076403968,-26.7573081705
1492885607589641598,37.4259581967,-122.076433472,-26.8067837537
1492885607674598367,37.4259477259,-122.076441354,-26.8373697326
1492885607775637270,37.4259372482,-122.076449445,-26.8770828367
1492885607874626943,37.4259270151,-122.076457692,-26.9224602323
1492885607973638082,37.4259168821,-122.076466294,-26.981451961
1492885608074646004,37.4259069375,-122.076475176,-27.0194075191
1492885608204662609,37.4258971829,-122.076484313,-27.0498415632
1492885608274722904,37.4258877508,-122.076493701,-27.0761574584
1492885608374314288,37.4258783806,-122.076503239,-27.1013088106
1492885608474281927,37.4258691122,-122.076512992,-27.1332066358
1492885608589299357,37.4258600116,-122.076522966,-27.1640256786
1492885609074814595,37.4258157957,-122.076574099,-27.4016143274
1492885609173796678,37.4258072273,-122.076584499,-27.442138547
1492885609273320877,37.42579857,-122.076594856,-27.4733535263
1492885609374351390,37.4257899884,-122.076605064,-27.5116872057
1492885609473844020,37.4257815641,-122.076615056,-27.5642496803
1492885609588869702,37.4257734089,-122.076624624,-27.6119580662
1492885609674840508,37.4257652773,-122.076633696,-27.6453957761
1492885609774462589,37.4257572846,-122.076642501,-27.6602381495
1492885609973454798,37.4257413892,-122.076658758,-27.6548839226
1492885610201511858,37.4257253519,-122.076673151,-27.6746017121
1492885610373562885,37.4257089811,-122.076685673,-27.7115469964
1492885610473551121,37.4257006352,-122.076691263,-27.7239565572
1492885610588980916,37.4256921176,-122.076696486,-27.7403927332
1492885610673997644,37.4256835434,-122.076701106,-27.7541564945
1492885610774075862,37.4256750899,-122.076704954,-27.7588617515
1492885610873551037,37.425666898,-122.076708345,-27.7547821973
1492885610973015718,37.4256588655,-122.076711235,-27.7516629979
1492885611074057975,37.4256509295,-122.076713733,-27.7576733357
1492885611173121521,37.4256430211,-122.076715637,-27.7593599537
1492885611273675855,37.4256351636,-122.076716961,-27.7598693902
1492885611373695992,37.4256273743,-122.076717892,-27.7643769861
1492885611586723857,37.4256119549,-122.076718759,-27.7873588625
1492885611873735471,37.4255896253,-122.076715773,-27.7961829872
1492885611973698819,37.4255827119,-122.076713692,-27.7941195705
1492885612074167242,37.4255760011,-122.076711081,-27.7925863436
1492885612203222469,37.4255696669,-122.076707748,-27.813041875
1492885612274239909,37.4255635352,-122.076703848,-27.8148869511
1492885612374204513,37.4255576739,-122.076699679,-27.8108753616
1492885612473211018,37.4255518917,-122.076695184,-27.8139169937
1492885613071820427,37.4255256838,-122.076659692,-27.8390386659
1492885613173944518,37.4255231591,-122.07665292,-27.8525704313
1492885613273911569,37.4255211769,-122.076645985,-27.8593117328
1492885613373328044,37.4255196837,-122.076638828,-27.865833597
1492885613589389907,37.4255191526,-122.076623977,-27.8394584085
1492885613674377932,37.4255198247,-122.076616738,-27.8362072406
1492885613773934003,37.4255207235,-122.076609736,-27.8450633287
1492885613873454811,37.4255223838,-122.076602743,-27.8353188098
1492885613973024900,37.4255248218,-122.076596091,-27.8259629766
1492885614074033657,37.4255274601,-122.076589631,-27.823299116
1492885614203564349,37.4255305935,-122.076583394,-27.8197023885
1492885614589123421,37.4255478468,-122.076561589,-27.7871367893
1492885614674558559,37.4255530954,-122.076557205,-27.8075829693
1492885614773573844,37.4255587509,-122.076553387,-27.8220776426
1492885614873583961,37.4255649036,-122.076549808,-27.803411328
1492885614974597793,37.4255711856,-122.076546858,-27.8100801292
1492885615074613467,37.4255777108,-122.076544065,-27.8173320116
1492885615174577465,37.4255846247,-122.076541541,-27.8071036886
1492885615274219373,37.4255917406,-122.07653919,-27.8010612339
1492885615374243557,37.4255991048,-122.076536718,-27.7875039389
1492885615474248380,37.4256066084,-122.076534184,-27.7802813282
1492885615587261443,37.4256143463,-122.076531886,-27.7663359777
1492885615673164555,37.4256223008,-122.076529636,-27.7417438709
1492885615879322707,37.4256387804,-122.076525166,-27.6933087099
1492885615982743800,37.4256472485,-122.076522786,-27.6650449728
1492885616083715594,37.425655781,-122.076520233,-27.6333122131
1492885616207736130,37.4256644467,-122.076517369,-27.5947538433
1492885616382785560,37.4256817484,-122.076510909,-27.5319887941
1492885616482811734,37.4256901512,-122.076507151,-27.5108511501
1492885616611364611,37.4256983953,-122.076503203,-27.4995227375
1492885616686387659,37.4257066083,-122.076499096,-27.4798137327
1492885616778415257,37.4257148043,-122.076494798,-27.4461987405
1492885617079404490,37.4257388457,-122.076481144,-27.359384299
1492885617178492891,37.4257467541,-122.076476182,-27.3145798043
1492885617278925604,37.4257545617,-122.076470978,-27.2773734714
1492885617378883110,37.4257623027,-122.076465662,-27.2507308141
1492885617478880065,37.4257700312,-122.076460211,-27.2250225003
1492885617604395144,37.4257778038,-122.076454649,-27.204245254
1492885617678930788,37.4257856745,-122.076449071,-27.1870584536
1492885617778575165,37.425793659,-122.076443471,-27.1557875447
1492885617878536427,37.4258017814,-122.076437846,-27.1308545767
1492885617978527318,37.4258099751,-122.076432154,-27.0952830939
1492885618079037241,37.4258183796,-122.076426412,-27.0554618952
1492885618201071838,37.4258267994,-122.07642049,-27.0116654788
1492885618378604127,37.4258437237,-122.07640845,-26.9648456877
1492885618477639954,37.4258522288,-122.076402369,-26.9502777125
1492885618603681834,37.4258608515,-122.076396204,-26.9278453438
1492885618677642517,37.4258695899,-122.076389926,-26.9119246996
1492885618777077081,37.4258784596,-122.076383706,-26.8853067048
1492885618877089222,37.4258873692,-122.076377387,-26.8564325326
1492885618977105807,37.4258961921,-122.076370957,-26.8432630869
1492885619078125411,37.4259050497,-122.07636455,-26.8279928112
1492885619176175577,37.4259140758,-122.076357893,-26.800416064
1492885619276154777,37.4259230244,-122.076351197,-26.758821413
1492885619375737577,37.4259319783,-122.076344503,-26.7253068176
1492885619475747554,37.425940863,-122.07633773,-26.6969240425
1492885619601748250,37.4259496347,-122.076330931,-26.6696968308
1492885619876303455,37.4259756336,-122.076310034,-26.5935470717
1492885619976342061,37.4259842202,-122.076302805,-26.5604520193
1492885620076865071,37.4259927786,-122.07629569,-26.5456213208
1492885620206290772,37.4260012403,-122.076288572,-26.540641149
1492885620275782408,37.4260096074,-122.076281385,-26.5300630488
1492885620376346632,37.4260179441,-122.07627426,-26.5123151589
1492885620476356067,37.4260262554,-122.076267136,-26.4908806849
1492885620602365974,37.4260345101,-122.076259939,-26.4739726658
1492885620676937997,37.4260426983,-122.076252625,-26.4612784786
1492885620777503582,37.4260508273,-122.076245369,-26.4457098942
1492885620876964718,37.4260588241,-122.07623805,-26.4376124921
1492885620976927642,37.4260667883,-122.076230747,-26.4292909812
1492885621176976036,37.4260829734,-122.076216543,-26.3815991049
1492885621275989277,37.4260910946,-122.076209622,-26.3659981912
1492885621377035130,37.4260991672,-122.076202881,-26.3645740655
1492885621477069490,37.4261071665,-122.076196145,-26.373264695
1492885621603037406,37.4261151522,-122.076189388,-26.368833421
1492885621677066438,37.4261231617,-122.076182521,-26.3568816739
1492885621876489189,37.4261394352,-122.076168745,-26.3261135036
1492885621976549671,37.4261477018,-122.076161894,-26.3223878239
1492885622078025318,37.4261560382,-122.076155143,-26.3238748414
1492885622203522724,37.426164433,-122.076148307,-26.3282491202
1492885622280118505,37.4261728735,-122.076141443,-26.3414350245
1492885622377141668,37.4261813916,-122.076134512,-26.3479057198
1492885622600151779,37.4261983647,-122.076120313,-26.3524628347
1492885622678203974,37.4262068602,-122.076113243,-26.3685463739
1492885622777196733,37.4262153379,-122.076106179,-26.3732464986
1492885622877204864,37.4262238867,-122.076099228,-26.3803110807
1492885622977205655,37.4262324291,-122.076092213,-26.3949958375
1492885623078239905,37.4262409716,-122.076085105,-26.4036009636
1492885623177164878,37.4262496135,-122.076078177,-26.408826983
1492885623276687079,37.4262581927,-122.076071257,-26.4236861448
1492885623376680734,37.4262667856,-122.076064431,-26.4396227997
1492885623477685390,37.4262753575,-122.076057591,-26.4624521317
1492885623603304621,37.4262839421,-122.076050742,-26.4760150386
1492885623677307872,37.4262925822,-122.076043912,-26.490354236
1492885623976331593,37.4263181843,-122.076023261,-26.5502363732
1492885624077367340,37.4263266537,-122.076016413,-26.576226994
1492885624206449541,37.4263352296,-122.076009672,-26.5942230551
1492885624277393259,37.4263438481,-122.076003077,-26.6064759888
1492885624377825905,37.4263525325,-122.075996553,-26.6242524967
1492885624477358853,37.4263612519,-122.075990134,-26.6518148736
1492885624677841305,37.4263785009,-122.07597741,-26.6996494746
1492885624777907129,37.426387091,-122.075970998,-26.7282629065
1492885624877472185,37.4263956168,-122.075964668,-26.7559425918
1492885624977466757,37.4264041715,-122.07595837,-26.7856224932
1492885625078503588,37.4264126621,-122.075952165,-26.8171434228
1492885625376535935,37.4264379219,-122.075934275,-26.8901593874
1492885625477580136,37.426446325,-122.075928554,-26.908496746
1492885625603022952,37.426454638,-122.075922867,-26.9231937806
1492885625677976180,37.4264628513,-122.075917244,-26.9482575142
1492885625778002426,37.4264709345,-122.075911889,-26.9806268669
1492885625877560647,37.4264788006,-122.075906772,-27.0010073802
1492885625977013838,37.4264866076,-122.075901754,-27.0283408157
1492885626209084065,37.4265020114,-122.075892432,-27.0830189354
1492885626277635846,37.4265096722,-122.075888176,-27.0958396449
1492885626377671277,37.4265173742,-122.075884074,-27.1128346278
1492885626477691070,37.4265250534,-122.07588022,-27.1257342655
1492885626677708557,37.4265403638,-122.075873345,-27.1630159251
1492885626777227177,37.4265480426,-122.075870239,-27.1834569547
1492885626877739352,37.4265557669,-122.075867266,-27.2014015847
1492885626976781892,37.4265634455,-122.075864532,-27.2183055251
1492885627077772610,37.4265711309,-122.07586213,-27.2362717981
1492885627177209338,37.4265788769,-122.075860134,-27.2552703413
1492885627377203466,37.4265944626,-122.075856869,-27.2770574672
1492885627603291630,37.4266100244,-122.075854898,-27.3082972385
1492885627677301980,37.426617785,-122.075854202,-27.3296359107
1492885627777355936,37.4266255,-122.075853907,-27.3393512497
1492885628078404707,37.4266484163,-122.075854576,-27.3810334712
1492885628210936039,37.4266556973,-122.075855559,-27.4012207843
1492885628276926028,37.4266628319,-122.075856703,-27.4289358347
1492885628376934147,37.4266697566,-122.075858282,-27.4503362442
1492885628476953059,37.4266765454,-122.075860256,-27.4634992516
1492885628602949149,37.4266830784,-122.075862482,-27.4710207598
1492885628677396327,37.4266892057,-122.075865184,-27.4957020972
1492885628777924947,37.4266951014,-122.075868097,-27.508685271
1492885628877425890,37.4267008062,-122.07587117,-27.5187618759
