timestamp,tx,ty,tz,rx,ry,rz
1492886966401506956,-0.091,-8.511,-0.433,0.0,-0.0,0.0
1492886966501411781,-0.093,-8.512,-0.432,0.0,-0.0,0.0
1492886966628201313,-0.093,-8.513,-0.434,0.0,-0.0,0.0
1492886966701091059,-0.092,-8.512,-0.442,0.0,-0.0,0.0
1492886966801944980,-0.088,-8.508,-0.443,0.0,-0.0,0.0
1492886966902851305,-0.084,-8.499,-0.442,0.0,-0.0,0.0
1492886967002704091,-0.076,-8.485,-0.442,0.0,-0.0,0.0
1492886967103589013,-0.063,-8.457,-0.445,0.0,-0.0,0.0
1492886967203431852,-0.043,-8.415,-0.452,0.0,-0.0,0.0
1492886967302316027,-0.012,-8.361,-0.457,0.0,-0.0,0.0
1492886967402196297,0.028,-8.287,-0.46,0.0,-0.0,0.0
1492886967502082106,0.078,-8.198,-0.461,0.0,-0.0,0.0
1492886967628938296,0.143,-8.088,-0.463,0.0,-0.0,0.0
1492886967701405034,0.219,-7.957,-0.468,0.0,-0.0,0.0
1492886967802274400,0.306,-7.801,-0.472,0.0,-0.0,0.0
1492886967902606101,0.405,-7.617,-0.471,0.0,-0.0,0.0
1492886968003600795,0.514,-7.408,-0.471,0.0,-0.0,0.0
1492886968103355570,0.634,-7.173,-0.477,0.0,-0.0,0.0
1492886968202282913,0.771,-6.92,-0.476,0.0,-0.0,0.0
1492886968301128250,0.919,-6.644,-0.474,0.0,-0.0,0.0
1492886968401963279,1.069,-6.347,-0.467,0.0,-0.0,0.0
1492886968500802131,1.225,-6.035,-0.47,0.0,-0.0,0.0
1492886968627696693,1.388,-5.711,-0.47,0.0,-0.0,0.0
1492886968700591510,1.557,-5.373,-0.477,0.0,-0.0,0.0
1492886968801453049,1.729,-5.018,-0.476,0.0,-0.0,0.0
1492886968901314479,1.902,-4.648,-0.478,0.0,-0.0,0.0
1492886969001147964,2.077,-4.264,-0.485,0.0,-0.0,0.0
1492886969101949539,2.258,-3.867,-0.496,0.0,-0.0,0.0
1492886969200911254,2.441,-3.459,-0.504,0.0,-0.0,0.0
1492886969300729582,2.628,-3.035,-0.514,0.0,-0.0,0.0
1492886969401490944,2.814,-2.598,-0.514,0.0,-0.0,0.0
1492886969500400804,2.997,-2.147,-0.516,0.0,-0.0,0.0
1492886969626859616,3.176,-1.686,-0.513,0.0,-0.0,0.0
1492886969700232242,3.358,-1.213,-0.523,0.0,-0.0,0.0
1492886969801061725,3.535,-0.732,-0.525,0.0,-0.0,0.0
1492886969900952160,3.714,-0.239,-0.53,0.0,-0.0,0.0
1492886970000827104,3.896,0.26,-0.539,0.0,-0.0,0.0
1492886970102728849,4.081,0.771,-0.552,0.0,-0.0,0.0
1492886970201531184,4.267,1.291,-0.565,0.0,-0.0,0.0
1492886970301383602,4.445,1.824,-0.574,0.0,-0.0,0.0
1492886970400246177,4.616,2.372,-0.575,0.0,-0.0,0.0
1492886970500644343,4.785,2.925,-0.588,0.0,-0.0,0.0
1492886970626968048,4.962,3.483,-0.598,0.0,-0.0,0.0
1492886970700883942,5.143,4.045,-0.609,0.0,-0.0,0.0
1492886970800812611,5.323,4.622,-0.614,0.0,-0.0,0.0
1492886970901694604,5.504,5.201,-0.617,0.0,-0.0,0.0
1492886971001049765,5.693,5.784,-0.622,0.0,-0.0,0.0
1492886971101437786,5.887,6.372,-0.627,0.0,-0.0,0.0
1492886971201280299,6.085,6.963,-0.636,0.0,-0.0,0.0
1492886971300678408,6.29,7.552,-0.647,0.0,-0.0,0.0
1492886971400535828,6.504,8.142,-0.66,0.0,-0.0,0.0
1492886971500882745,6.72,8.731,-0.674,0.0,-0.0,0.0
1492886971626760851,6.94,9.325,-0.686,0.0,-0.0,0.0
1492886971700652480,7.166,9.916,-0.699,0.0,-0.0,0.0
1492886971800510262,7.402,10.509,-0.708,0.0,-0.0,0.0
1492886971901411575,7.645,11.104,-0.72,0.0,-0.0,0.0
1492886972009285552,7.896,11.699,-0.731,0.0,-0.0,0.0
1492886972101132048,8.156,12.293,-0.746,0.0,-0.0,0.0
1492886972201058430,8.426,12.886,-0.757,0.0,-0.0,0.0
1492886972300917945,8.697,13.481,-0.77,0.0,-0.0,0.0
1492886972399809972,8.97,14.076,-0.782,0.0,-0.0,0.0
1492886972500161422,9.252,14.672,-0.792,0.0,-0.0,0.0
1492886972626481970,9.542,15.267,-0.804,0.0,-0.0,0.0
1492886972701399156,9.843,15.859,-0.816,0.0,-0.0,0.0
1492886972801294354,10.145,16.455,-0.826,0.0,-0.0,0.0
1492886972901167568,10.451,17.055,-0.839,0.0,-0.0,0.0
1492886973001074479,10.764,17.652,-0.836,0.0,-0.0,0.0
1492886973101916218,11.085,18.25,-0.85,0.0,-0.0,0.0
1492886973200774887,11.414,18.851,-0.875,0.0,-0.0,0.0
1492886973300668408,11.773,19.442,-0.868,0.0,-0.0,0.0
1492886973400471691,12.154,20.03,-0.838,0.0,-0.0,0.0
1492886973500378543,12.486,20.651,-0.826,0.0,-0.0,0.0
1492886973626257861,12.836,21.256,-0.826,0.0,-0.0,0.0
1492886973700112407,13.131,21.877,-0.914,0.0,-0.0,0.0
1492886973799986396,13.49,22.488,-0.926,0.0,-0.0,0.0
1492886973898891569,13.859,23.097,-0.933,0.0,-0.0,0.0
1492886973999752723,14.23,23.71,-0.948,0.0,-0.0,0.0
1492886974101534651,14.609,24.321,-0.943,0.0,-0.0,0.0
1492886974199395547,14.99,24.936,-0.946,0.0,-0.0,0.0
1492886974299271600,15.371,25.549,-0.962,0.0,-0.0,0.0
1492886974399136093,15.756,26.162,-0.966,0.0,-0.0,0.0
1492886974498534525,16.149,26.78,-0.984,0.0,-0.0,0.0
1492886974616890650,16.533,27.387,-1.0,0.0,-0.0,0.0
1492886974698814230,16.934,27.99,-1.004,0.0,-0.0,0.0
1492886974798757456,17.327,28.598,-1.026,0.0,-0.0,0.0
1492886974899548782,17.725,29.201,-1.027,0.0,-0.0,0.0
1492886974998486423,18.132,29.808,-1.034,0.0,-0.0,0.0
1492886975100192303,18.531,30.411,-1.053,0.0,-0.0,0.0
1492886975200156026,18.934,31.012,-1.056,0.0,-0.0,0.0
1492886975299053587,19.347,31.609,-1.043,0.0,-0.0,0.0
1492886975398963505,19.744,32.2,-1.064,0.0,-0.0,0.0
