timestamp,lat,long,alt
1492887007990743426,37.4262060845,-122.076508078,-27.5879945898
1492887008612837244,37.4262197904,-122.076499289,-27.5804775676
1492887008887466877,37.4262298511,-122.076493967,-27.5890500671
1492887009387831136,37.4262508109,-122.076485274,-27.6081112567
1492887009888152104,37.4262753989,-122.076476188,-27.6171725549
1492887009990156625,37.426280621,-122.076474069,-27.615616801
1492887010387532785,37.4263021535,-122.076466109,-27.7032271384
1492887010611254403,37.4263134803,-122.076461838,-27.711630932
1492887010887892529,37.4263308884,-122.076455357,-27.6907177075
1492887011087632989,37.4263424974,-122.076450547,-27.6710185922
1492887011388287365,37.4263599148,-122.076442806,-27.6845534427
1492887011612033077,37.4263713926,-122.076437097,-27.6945943512
1492887011991599502,37.4263938239,-122.076424685,-27.7290637556
1492887012188178804,37.4264048159,-122.076418146,-27.7361748782
1492887012388071504,37.4264156502,-122.076411595,-27.742996045
1492887012610833330,37.4264262001,-122.076404923,-27.7542409054
1492887013610362930,37.4264735805,-122.076372053,-27.8128240454
1492887013990426195,37.4264897332,-122.076359857,-27.8011376226
1492887014385280852,37.4265026578,-122.076349856,-27.7992112508
1492887014610027154,37.4265078481,-122.076345712,-27.798476871
1492887015189350424,37.426518678,-122.076337181,-27.813331764
1492887015609734661,37.4265225579,-122.07633414,-27.8420200209
1492887015989390069,37.4265251612,-122.076332048,-27.8375927748
