timestamp,width,height,frame_id,filename
1492886948086852190,1368,1096,camera,camera/1492886948086852190.jpg
1492886948128401279,1368,1096,camera,camera/1492886948128401279.jpg
1492886948170168401,1368,1096,camera,camera/1492886948170168401.jpg
1492886948211655540,1368,1096,camera,camera/1492886948211655540.jpg
1492886948253319468,1368,1096,camera,camera/1492886948253319468.jpg
1492886948295046891,1368,1096,camera,camera/1492886948295046891.jpg
1492886948336725931,1368,1096,camera,camera/1492886948336725931.jpg
1492886948378458966,1368,1096,camera,camera/1492886948378458966.jpg
1492886948420058493,1368,1096,camera,camera/1492886948420058493.jpg
1492886948461698797,1368,1096,camera,camera/1492886948461698797.jpg
1492886948503323028,1368,1096,camera,camera/1492886948503323028.jpg
1492886948545170739,1368,1096,camera,camera/1492886948545170739.jpg
1492886948586682840,1368,1096,camera,camera/1492886948586682840.jpg
1492886948628398679,1368,1096,camera,camera/1492886948628398679.jpg
1492886948670124564,1368,1096,camera,camera/1492886948670124564.jpg
1492886948711850942,1368,1096,camera,camera/1492886948711850942.jpg
1492886948753439662,1368,1096,camera,camera/1492886948753439662.jpg
1492886948795126314,1368,1096,camera,camera/1492886948795126314.jpg
1492886948836825820,1368,1096,camera,camera/1492886948836825820.jpg
1492886948878432312,1368,1096,camera,camera/1492886948878432312.jpg
1492886948920012814,1368,1096,camera,camera/1492886948920012814.jpg
1492886948961717991,1368,1096,camera,camera/1492886948961717991.jpg
1492886949003443680,1368,1096,camera,camera/1492886949003443680.jpg
1492886949045138979,1368,1096,camera,camera/1492886949045138979.jpg
1492886949086712570,1368,1096,camera,camera/1492886949086712570.jpg
1492886949128441581,1368,1096,camera,camera/1492886949128441581.jpg
1492886949169964935,1368,1096,camera,camera/1492886949169964935.jpg
1492886949211631824,1368,1096,camera,camera/1492886949211631824.jpg
1492886949253346145,1368,1096,camera,camera/1492886949253346145.jpg
1492886949295062334,1368,1096,camera,camera/1492886949295062334.jpg
1492886949336754700,1368,1096,camera,camera/1492886949336754700.jpg
1492886949378394807,1368,1096,camera,camera/1492886949378394807.jpg
1492886949419998785,1368,1096,camera,camera/1492886949419998785.jpg
1492886949461811990,1368,1096,camera,camera/1492886949461811990.jpg
1492886949503365157,1368,1096,camera,camera/1492886949503365157.jpg
1492886949545078258,1368,1096,camera,camera/1492886949545078258.jpg
1492886949586774473,1368,1096,camera,camera/1492886949586774473.jpg
1492886949628308396,1368,1096,camera,camera/1492886949628308396.jpg
1492886949670040333,1368,1096,camera,camera/1492886949670040333.jpg
1492886949714156593,1368,1096,camera,camera/1492886949714156593.jpg
1492886949753506214,1368,1096,camera,camera/1492886949753506214.jpg
1492886949795062891,1368,1096,camera,camera/1492886949795062891.jpg
1492886949836656267,1368,1096,camera,camera/1492886949836656267.jpg
1492886949878383517,1368,1096,camera,camera/1492886949878383517.jpg
1492886949922481038,1368,1096,camera,camera/1492886949922481038.jpg
1492886949961801020,1368,1096,camera,camera/1492886949961801020.jpg
1492886950003478536,1368,1096,camera,camera/1492886950003478536.jpg
1492886950045010160,1368,1096,camera,camera/1492886950045010160.jpg
1492886950086670850,1368,1096,camera,camera/1492886950086670850.jpg
1492886950130763114,1368,1096,camera,camera/1492886950130763114.jpg
1492886950170071977,1368,1096,camera,camera/1492886950170071977.jpg
1492886950211666591,1368,1096,camera,camera/1492886950211666591.jpg
1492886950253384044,1368,1096,camera,camera/1492886950253384044.jpg
1492886950295097857,1368,1096,camera,camera/1492886950295097857.jpg
1492886950339190269,1368,1096,camera,camera/1492886950339190269.jpg
1492886950378320383,1368,1096,camera,camera/1492886950378320383.jpg
1492886950420081531,1368,1096,camera,camera/1492886950420081531.jpg
1492886950461723361,1368,1096,camera,camera/1492886950461723361.jpg
1492886950503329636,1368,1096,camera,camera/1492886950503329636.jpg
1492886950547495278,1368,1096,camera,camera/1492886950547495278.jpg
1492886950586714334,1368,1096,camera,camera/1492886950586714334.jpg
1492886950628326758,1368,1096,camera,camera/1492886950628326758.jpg
1492886950670034758,1368,1096,camera,camera/1492886950670034758.jpg
1492886950711702735,1368,1096,camera,camera/1492886950711702735.jpg
1492886950755742702,1368,1096,camera,camera/1492886950755742702.jpg
1492886950795027468,1368,1096,camera,camera/1492886950795027468.jpg
1492886950836678536,1368,1096,camera,camera/1492886950836678536.jpg
1492886950878464834,1368,1096,camera,camera/1492886950878464834.jpg
1492886950920013172,1368,1096,camera,camera/1492886950920013172.jpg
1492886950964098298,1368,1096,camera,camera/1492886950964098298.jpg
1492886951003298478,1368,1096,camera,camera/1492886951003298478.jpg
1492886951045065623,1368,1096,camera,camera/1492886951045065623.jpg
1492886951086721902,1368,1096,camera,camera/1492886951086721902.jpg
1492886951128447922,1368,1096,camera,camera/1492886951128447922.jpg
1492886951172533841,1368,1096,camera,camera/1492886951172533841.jpg
1492886951211690620,1368,1096,camera,camera/1492886951211690620.jpg
1492886951253385393,1368,1096,camera,camera/1492886951253385393.jpg
1492886951295093280,1368,1096,camera,camera/1492886951295093280.jpg
1492886951336787474,1368,1096,camera,camera/1492886951336787474.jpg
1492886951380794078,1368,1096,camera,camera/1492886951380794078.jpg
1492886951420099238,1368,1096,camera,camera/1492886951420099238.jpg
1492886951461761488,1368,1096,camera,camera/1492886951461761488.jpg
1492886951503327924,1368,1096,camera,camera/1492886951503327924.jpg
1492886951545036041,1368,1096,camera,camera/1492886951545036041.jpg
1492886951589023135,1368,1096,camera,camera/1492886951589023135.jpg
1492886951628315133,1368,1096,camera,camera/1492886951628315133.jpg
1492886951670004726,1368,1096,camera,camera/1492886951670004726.jpg
1492886951711660637,1368,1096,camera,camera/1492886951711660637.jpg
1492886951753546273,1368,1096,camera,camera/1492886951753546273.jpg
1492886951794998169,1368,1096,camera,camera/1492886951794998169.jpg
1492886951836674158,1368,1096,camera,camera/1492886951836674158.jpg
1492886951878362860,1368,1096,camera,camera/1492886951878362860.jpg
1492886951920046960,1368,1096,camera,camera/1492886951920046960.jpg
1492886951961636851,1368,1096,camera,camera/1492886951961636851.jpg
1492886952003311025,1368,1096,camera,camera/1492886952003311025.jpg
1492886952045066906,1368,1096,camera,camera/1492886952045066906.jpg
1492886952086723805,1368,1096,camera,camera/1492886952086723805.jpg
1492886952128415327,1368,1096,camera,camera/1492886952128415327.jpg
1492886952170068491,1368,1096,camera,camera/1492886952170068491.jpg
1492886952211744425,1368,1096,camera,camera/1492886952211744425.jpg
1492886952253434624,1368,1096,camera,camera/1492886952253434624.jpg
1492886952295079080,1368,1096,camera,camera/1492886952295079080.jpg
1492886952336734140,1368,1096,camera,camera/1492886952336734140.jpg
1492886952378401282,1368,1096,camera,camera/1492886952378401282.jpg
1492886952419959813,1368,1096,camera,camera/1492886952419959813.jpg
1492886952461799332,1368,1096,camera,camera/1492886952461799332.jpg
1492886952503459885,1368,1096,camera,camera/1492886952503459885.jpg
1492886952545148585,1368,1096,camera,camera/1492886952545148585.jpg
1492886952586781192,1368,1096,camera,camera/1492886952586781192.jpg
1492886952628427660,1368,1096,camera,camera/1492886952628427660.jpg
1492886952669975073,1368,1096,camera,camera/1492886952669975073.jpg
1492886952711635530,1368,1096,camera,camera/1492886952711635530.jpg
1492886952753305748,1368,1096,camera,camera/1492886952753305748.jpg
1492886952794979523,1368,1096,camera,camera/1492886952794979523.jpg
1492886952836714374,1368,1096,camera,camera/1492886952836714374.jpg
1492886952878430312,1368,1096,camera,camera/1492886952878430312.jpg
1492886952920184603,1368,1096,camera,camera/1492886952920184603.jpg
1492886952961692771,1368,1096,camera,camera/1492886952961692771.jpg
1492886953003372087,1368,1096,camera,camera/1492886953003372087.jpg
1492886953044974163,1368,1096,camera,camera/1492886953044974163.jpg
1492886953086693140,1368,1096,camera,camera/1492886953086693140.jpg
1492886953128413763,1368,1096,camera,camera/1492886953128413763.jpg
1492886953170080012,1368,1096,camera,camera/1492886953170080012.jpg
1492886953211689071,1368,1096,camera,camera/1492886953211689071.jpg
1492886953253360771,1368,1096,camera,camera/1492886953253360771.jpg
1492886953295071062,1368,1096,camera,camera/1492886953295071062.jpg
1492886953336727086,1368,1096,camera,camera/1492886953336727086.jpg
1492886953378377423,1368,1096,camera,camera/1492886953378377423.jpg
1492886953420038361,1368,1096,camera,camera/1492886953420038361.jpg
1492886953461821458,1368,1096,camera,camera/1492886953461821458.jpg
1492886953503308181,1368,1096,camera,camera/1492886953503308181.jpg
1492886953547352144,1368,1096,camera,camera/1492886953547352144.jpg
1492886953586726897,1368,1096,camera,camera/1492886953586726897.jpg
1492886953628338627,1368,1096,camera,camera/1492886953628338627.jpg
1492886953670058802,1368,1096,camera,camera/1492886953670058802.jpg
1492886953711641604,1368,1096,camera,camera/1492886953711641604.jpg
1492886953755806617,1368,1096,camera,camera/1492886953755806617.jpg
1492886953795088384,1368,1096,camera,camera/1492886953795088384.jpg
1492886953836719555,1368,1096,camera,camera/1492886953836719555.jpg
1492886953878390701,1368,1096,camera,camera/1492886953878390701.jpg
1492886953920086819,1368,1096,camera,camera/1492886953920086819.jpg
1492886953964155987,1368,1096,camera,camera/1492886953964155987.jpg
1492886954003320433,1368,1096,camera,camera/1492886954003320433.jpg
1492886954045022600,1368,1096,camera,camera/1492886954045022600.jpg
1492886954086838013,1368,1096,camera,camera/1492886954086838013.jpg
1492886954128471046,1368,1096,camera,camera/1492886954128471046.jpg
1492886954170090011,1368,1096,camera,camera/1492886954170090011.jpg
1492886954211811846,1368,1096,camera,camera/1492886954211811846.jpg
1492886954253447199,1368,1096,camera,camera/1492886954253447199.jpg
1492886954295032947,1368,1096,camera,camera/1492886954295032947.jpg
1492886954336674034,1368,1096,camera,camera/1492886954336674034.jpg
1492886954378335619,1368,1096,camera,camera/1492886954378335619.jpg
1492886954420058047,1368,1096,camera,camera/1492886954420058047.jpg
1492886954461732437,1368,1096,camera,camera/1492886954461732437.jpg
1492886954503378533,1368,1096,camera,camera/1492886954503378533.jpg
1492886954545116936,1368,1096,camera,camera/1492886954545116936.jpg
1492886954586722486,1368,1096,camera,camera/1492886954586722486.jpg
1492886954628336331,1368,1096,camera,camera/1492886954628336331.jpg
1492886954670060122,1368,1096,camera,camera/1492886954670060122.jpg
1492886954711804347,1368,1096,camera,camera/1492886954711804347.jpg
1492886954753672429,1368,1096,camera,camera/1492886954753672429.jpg
1492886954795090672,1368,1096,camera,camera/1492886954795090672.jpg
1492886954836721802,1368,1096,camera,camera/1492886954836721802.jpg
1492886954878376206,1368,1096,camera,camera/1492886954878376206.jpg
1492886954920137302,1368,1096,camera,camera/1492886954920137302.jpg
1492886954961674805,1368,1096,camera,camera/1492886954961674805.jpg
