timestamp,tx,ty,tz,rx,ry,rz
1492886948095145803,1.538,-5.497,2.251,0.0,-0.0,0.0
1492886948194096372,1.589,-5.412,2.154,0.0,-0.0,0.0
1492886948293451921,1.612,-5.358,2.055,0.0,-0.0,0.0
1492886948396797823,1.663,-5.245,1.966,0.0,-0.0,0.0
1492886948493644361,1.716,-5.127,1.859,0.0,-0.0,0.0
1492886948612514565,1.813,-4.963,1.765,0.0,-0.0,0.0
1492886948694346086,1.898,-4.809,1.753,0.0,-0.0,0.0
1492886948794256971,2.011,-4.64,1.762,0.0,-0.0,0.0
1492886948896620895,2.138,-4.393,1.755,0.0,-0.0,0.0
1492886948994994302,2.255,-4.102,1.75,0.0,-0.0,0.0
1492886949094906359,2.406,-3.746,1.823,0.0,-0.0,0.0
1492886949194835666,2.607,-3.395,1.744,0.0,-0.0,0.0
1492886949294694007,2.78,-3.017,1.701,0.0,-0.0,0.0
1492886949396647249,2.963,-2.65,1.714,0.0,-0.0,0.0
1492886949493414061,3.155,-2.284,1.654,0.0,-0.0,0.0
1492886949620220503,3.355,-1.898,1.665,0.0,-0.0,0.0
1492886949696108631,3.645,-1.335,0.142,0.0,-0.0,0.0
1492886949795036344,3.909,-0.86,-0.136,0.0,-0.0,0.0
1492886949896910788,4.194,-0.411,-0.513,0.0,-0.0,0.0
1492886949996360211,4.49,0.04,-0.774,0.0,-0.0,0.0
1492886950095646868,4.764,0.579,-0.884,0.0,-0.0,0.0
1492886950195587470,5.021,1.056,-0.959,0.0,-0.0,0.0
1492886950295389028,5.248,1.541,-0.949,0.0,-0.0,0.0
1492886950396821403,5.488,1.984,-1.041,0.0,-0.0,0.0
1492886950495172249,5.744,2.436,-1.063,0.0,-0.0,0.0
1492886950621032198,5.981,2.931,-1.016,0.0,-0.0,0.0
1492886950697412392,6.114,3.387,-1.057,0.0,-0.0,0.0
1492886950796303923,6.389,3.899,-1.305,0.0,-0.0,0.0
1492886950896655537,6.638,4.387,-1.399,0.0,-0.0,0.0
1492886950996017291,6.87,4.828,-1.467,0.0,-0.0,0.0
1492886951097450984,7.059,5.21,-1.499,0.0,-0.0,0.0
1492886951196281701,7.291,5.633,-1.397,0.0,-0.0,0.0
1492886951297188972,7.487,6.11,-1.207,0.0,-0.0,0.0
1492886951397082334,7.695,6.561,-1.306,0.0,-0.0,0.0
1492886951495962897,7.869,6.932,-1.236,0.0,-0.0,0.0
1492886951622761244,8.009,7.309,-1.094,0.0,-0.0,0.0
1492886951696674456,8.068,7.624,-1.164,0.0,-0.0,0.0
1492886951796543203,8.221,7.805,-0.905,0.0,-0.0,0.0
1492886951897368780,8.366,8.139,-0.977,0.0,-0.0,0.0
1492886952000301163,8.47,8.443,-1.065,0.0,-0.0,0.0
1492886952097128912,8.624,8.702,-1.109,0.0,-0.0,0.0
1492886952196921003,8.725,8.907,-1.131,0.0,-0.0,0.0
1492886952296791216,8.812,9.106,-1.013,0.0,-0.0,0.0
1492886952396653876,8.883,9.249,-0.969,0.0,-0.0,0.0
1492886952496539274,8.91,9.293,-0.908,0.0,-0.0,0.0
1492886952622415224,8.972,9.416,-0.804,0.0,-0.0,0.0
1492886952697325382,8.887,9.54,-0.826,0.0,-0.0,0.0
1492886952796158499,8.913,9.664,-0.889,0.0,-0.0,0.0
1492886952897074760,9.019,9.757,-1.111,0.0,-0.0,0.0
1492886952996874385,9.062,9.852,-1.24,0.0,-0.0,0.0
1492886953097765975,9.144,9.803,-1.072,0.0,-0.0,0.0
1492886953196730172,9.144,9.902,-1.05,0.0,-0.0,0.0
1492886953296028261,9.107,9.968,-1.055,0.0,-0.0,0.0
1492886953397395902,9.015,9.952,-1.0,0.0,-0.0,0.0
1492886953496248718,8.883,9.899,-0.905,0.0,-0.0,0.0
1492886953623102701,8.855,9.876,-0.867,0.0,-0.0,0.0
1492886953697010299,8.8,9.98,-0.603,0.0,-0.0,0.0
1492886953796874417,8.664,9.96,-0.435,0.0,-0.0,0.0
1492886953896764072,8.532,9.965,-0.296,0.0,-0.0,0.0
1492886953997199007,8.459,9.898,-0.211,0.0,-0.0,0.0
1492886954097499947,8.381,9.84,-0.167,0.0,-0.0,0.0
1492886954197334170,8.309,9.755,-0.13,0.0,-0.0,0.0
1492886954296714231,8.355,9.733,-0.378,0.0,-0.0,0.0
1492886954397102681,8.396,9.729,-0.551,0.0,-0.0,0.0
1492886954495974107,8.397,9.7,-0.825,0.0,-0.0,0.0
1492886954622858098,8.383,9.679,-0.98,0.0,-0.0,0.0
1492886954697739049,8.5,9.587,-0.927,0.0,-0.0,0.0
1492886954796663542,8.375,9.499,-1.094,0.0,-0.0,0.0
1492886954897445539,8.247,9.458,-1.186,0.0,-0.0,0.0
