index,timestamp,tx,ty,tz,rx,ry,rz
2017-04-22 18:49:08.086852190,1492886948086852190,1.538,-5.497,2.251,0.0,-0.0,0.0
2017-04-22 18:49:08.128401279,1492886948128401279,1.55514012511,-5.46843312481,2.21840015419,0.0,0.0,0.0
2017-04-22 18:49:08.170168401,1492886948170168401,1.57666727465,-5.43255454226,2.17745635999,0.0,0.0,0.0
2017-04-22 18:49:08.211655540,1492886948211655540,1.59306477063,-5.40245662548,2.13650381337,0.0,0.0,0.0
2017-04-22 18:49:08.253319468,1492886948253319468,1.60270963752,-5.37981215538,2.09498895153,0.0,0.0,0.0
2017-04-22 18:49:08.295046891,1492886948295046891,1.61278705653,-5.35625612964,2.05362650919,0.0,0.0,0.0
2017-04-22 18:49:08.336725931,1492886948336725931,1.6333552567,-5.31068345083,2.0177329834,0.0,0.0,0.0
2017-04-22 18:49:08.378458966,1492886948378458966,1.65394998687,-5.26505198987,1.98179316017,0.0,0.0,0.0
2017-04-22 18:49:08.420058493,1492886948420058493,1.67572957149,-5.2166586899,1.94030067643,0.0,0.0,0.0
2017-04-22 18:49:08.461698797,1492886948461698797,1.69851760871,-5.16592305984,1.89429463901,0.0,0.0,0.0
2017-04-22 18:49:08.503323028,1492886948503323028,1.72389809126,-5.11364652612,1.85134617961,0.0,0.0,0.0
2017-04-22 18:49:08.545170739,1492886948545170739,1.7580463478,-5.05591132949,1.81825405471,0.0,0.0,0.0
2017-04-22 18:49:08.586682840,1492886948586682840,1.79192094535,-4.99863881405,1.78542712513,0.0,0.0,0.0
2017-04-22 18:49:08.628398679,1492886948628398679,1.829499074,-4.93310756005,1.76267071896,0.0,0.0,0.0
2017-04-22 18:49:08.670124564,1492886948670124564,1.87284068712,-4.8545827551,1.756551903,0.0,0.0,0.0
2017-04-22 18:49:08.711850942,1492886948711850942,1.91779831504,-4.7793901306,1.75457685695,0.0,0.0,0.0
2017-04-22 18:49:08.753439662,1492886948753439662,1.9648354912,-4.70904249546,1.75832318072,0.0,0.0,0.0
2017-04-22 18:49:08.795126314,1492886948795126314,2.01207861021,-4.63790223054,1.76194054904,0.0,0.0,0.0
2017-04-22 18:49:08.836825820,1492886948836825820,2.06381410447,-4.53728280469,1.75908898637,0.0,0.0,0.0
2017-04-22 18:49:08.878432312,1492886948878432312,2.11543398798,-4.4368882281,1.75624379594,0.0,0.0,0.0
2017-04-22 18:49:08.920012814,1492886948920012814,2.16582118609,-4.32380371665,1.75381106042,0.0,0.0,0.0
2017-04-22 18:49:08.961717991,1492886948961717991,2.21542312587,-4.20043478951,1.75169131941,0.0,0.0,0.0
2017-04-22 18:49:09.003443680,1492886949003443680,2.26777001245,-4.07189321567,1.75617358218,0.0,0.0,0.0
2017-04-22 18:49:09.045138979,1492886949045138979,2.3307851451,-3.92332773738,1.7866378516,0.0,0.0,0.0
2017-04-22 18:49:09.086712570,1492886949086712570,2.39361650038,-3.77519553554,1.81701327502,0.0,0.0,0.0
2017-04-22 18:49:09.128441581,1492886949128441581,2.47345347625,-3.62820810864,1.79648843471,0.0,0.0,0.0
2017-04-22 18:49:09.169964935,1492886949169964935,2.55697463552,-3.48235772603,1.76366171042,0.0,0.0,0.0
2017-04-22 18:49:09.211631824,1492886949211631824,2.63609862563,-3.33142034399,1.73676739363,0.0,0.0,0.0
2017-04-22 18:49:09.253346145,1492886949253346145,2.70836664351,-3.17351681361,1.71880482271,0.0,0.0,0.0
2017-04-22 18:49:09.295062334,1492886949295062334,2.7806612271,-3.01567393253,1.70104697242,0.0,0.0,0.0
2017-04-22 18:49:09.336754700,1492886949336754700,2.85549660393,-2.86559424238,1.70636314673,0.0,0.0,0.0
2017-04-22 18:49:09.378394807,1492886949378394807,2.93023824183,-2.71570254234,1.71167266199,0.0,0.0,0.0
2017-04-22 18:49:09.419998785,1492886949419998785,3.00933293474,-2.56167784315,1.69952095789,0.0,0.0,0.0
2017-04-22 18:49:09.461811990,1492886949461811990,3.09229660631,-2.40352834422,1.67359481053,0.0,0.0,0.0
2017-04-22 18:49:09.503365157,1492886949503365157,3.17069476942,-2.25370909502,1.65486321232,0.0,0.0,0.0
2017-04-22 18:49:09.545078258,1492886949545078258,3.23648513033,-2.12673369847,1.65848168217,0.0,0.0,0.0
2017-04-22 18:49:09.586774473,1492886949586774473,3.30224884271,-1.99980973358,1.66209868635,0.0,0.0,0.0
2017-04-22 18:49:09.628308396,1492886949628308396,3.38590784582,-1.83799614759,1.50268052004,0.0,0.0,0.0
2017-04-22 18:49:09.670040333,1492886949670040333,3.54538250832,-1.5283953373,0.66516358564,0.0,0.0,0.0
2017-04-22 18:49:09.714156593,1492886949714156593,3.69316308997,-1.24834292524,0.0912828067706,0.0,0.0,0.0
2017-04-22 18:49:09.753506214,1492886949753506214,3.7981722894,-1.05940591869,-0.0192950623258,0.0,0.0,0.0
2017-04-22 18:49:09.795062891,1492886949795062891,3.9090737661,-0.859883786032,-0.136097578321,0.0,0.0,0.0
2017-04-22 18:49:09.836656267,1492886949836656267,4.02543442468,-0.676564713391,-0.290020274057,0.0,0.0,0.0
2017-04-22 18:49:09.878383517,1492886949878383517,4.14216892702,-0.492656672874,-0.444437492932,0.0,0.0,0.0
2017-04-22 18:49:09.922481038,1492886949922481038,4.27010718864,-0.295039384875,-0.580108027822,0.0,0.0,0.0
2017-04-22 18:49:09.961801020,1492886949961801020,4.38713825893,-0.116725152777,-0.683300964801,0.0,0.0,0.0
2017-04-22 18:49:10.003478536,1492886950003478536,4.50964434727,0.0786434422531,-0.781886416786,0.0,0.0,0.0
2017-04-22 18:49:10.045010160,1492886950045010160,4.62425850933,0.304107067623,-0.827899401556,0.0,0.0,0.0
2017-04-22 18:49:10.086670850,1492886950086670850,4.73922873667,0.530271127968,-0.874055332238,0.0,0.0,0.0
2017-04-22 18:49:10.130763114,1492886950130763114,4.85430183431,0.746603015423,-0.910352675381,0.0,0.0,0.0
2017-04-22 18:49:10.170071977,1492886950170071977,4.95538614422,0.934218641215,-0.939851987612,0.0,0.0,0.0
2017-04-22 18:49:10.211666591,1492886950211666591,5.05757221899,1.13413888198,-0.957388889031,0.0,0.0,0.0
2017-04-22 18:49:10.253384044,1492886950253384044,5.15245886997,1.33687027285,-0.953208860354,0.0,0.0,0.0
2017-04-22 18:49:10.295097857,1492886950295097857,5.24733795136,1.53958549079,-0.949029165138,0.0,0.0,0.0
2017-04-22 18:49:10.339190269,1492886950339190269,5.35163852496,1.732299444,-0.988728101236,0.0,0.0,0.0
2017-04-22 18:49:10.378320383,1492886950378320383,5.44422443031,1.90319759427,-1.02421936495,0.0,0.0,0.0
2017-04-22 18:49:10.420081531,1492886950420081531,5.54854381376,2.09089767116,-1.04620298399,0.0,0.0,0.0
2017-04-22 18:49:10.461723361,1492886950461723361,5.65693482533,2.28227555097,-1.05551783655,0.0,0.0,0.0
2017-04-22 18:49:10.503329636,1492886950503329636,5.75936036124,2.46808176715,-1.05995385241,0.0,0.0,0.0
2017-04-22 18:49:10.547495278,1492886950547495278,5.84252632414,2.6417828289,-1.04346102433,0.0,0.0,0.0
2017-04-22 18:49:10.586714334,1492886950586714334,5.91637792287,2.79602983891,-1.02881534863,0.0,0.0,0.0
2017-04-22 18:49:10.628326758,1492886950628326758,5.99370177638,2.97454894758,-1.0199155852,0.0,0.0,0.0
2017-04-22 18:49:10.670034758,1492886950670034758,6.06632755061,3.22355160209,-1.04230398177,0.0,0.0,0.0
2017-04-22 18:49:10.711702735,1492886950711702735,6.15373918896,3.46098714454,-1.09283752314,0.0,0.0,0.0
2017-04-22 18:49:10.755742702,1492886950755742702,6.27620653904,3.6889990836,-1.20328080612,0.0,0.0,0.0
2017-04-22 18:49:10.795027468,1492886950795027468,6.38545051062,3.89239149614,-1.30179900594,0.0,0.0,0.0
2017-04-22 18:49:10.836678536,1492886950836678536,6.48918083209,4.0953383376,-1.34281926995,0.0,0.0,0.0
2017-04-22 18:49:10.878464834,1492886950878464834,6.59286355322,4.29853981515,-1.38196053816,0.0,0.0,0.0
2017-04-22 18:49:10.920013172,1492886950920013172,6.69253732235,4.49066792741,-1.41498507724,0.0,0.0,0.0
2017-04-22 18:49:10.964098298,1492886950964098298,6.79547203529,4.6863326188,-1.44515559655,0.0,0.0,0.0
2017-04-22 18:49:11.003298478,1492886951003298478,6.88356688245,4.85542089469,-1.4692970383,0.0,0.0,0.0
2017-04-22 18:49:11.045065623,1492886951045065623,6.9613911414,5.01271648684,-1.48247363241,0.0,0.0,0.0
2017-04-22 18:49:11.086721902,1492886951086721902,7.0390083816,5.16959366017,-1.49561517572,0.0,0.0,0.0
2017-04-22 18:49:11.128447922,1492886951128447922,7.13176392864,5.34266871472,-1.46700896241,0.0,0.0,0.0
2017-04-22 18:49:11.172533841,1492886951172533841,7.23525310252,5.53135802744,-1.42150941182,0.0,0.0,0.0
2017-04-22 18:49:11.211690620,1492886951211690620,7.32092989302,5.70583958657,-1.3679863282,0.0,0.0,0.0
2017-04-22 18:49:11.253385393,1492886951253385393,7.4019172766,5.90293643336,-1.28947815024,0.0,0.0,0.0
2017-04-22 18:49:11.295093280,1492886951295093280,7.48292952262,6.10009378718,-1.21094587093,0.0,0.0,0.0
2017-04-22 18:49:11.336787474,1492886951336787474,7.56945288038,6.28878004352,-1.2462443998,0.0,0.0,0.0
2017-04-22 18:49:11.380794078,1492886951380794078,7.66108430867,6.48746165004,-1.28985743537,0.0,0.0,0.0
2017-04-22 18:49:11.420099238,1492886951420099238,7.73550293591,6.64735970817,-1.28970571544,0.0,0.0,0.0
2017-04-22 18:49:11.461761488,1492886951461761488,7.80881590775,6.80367644698,-1.26021199114,0.0,0.0,0.0
2017-04-22 18:49:11.503327924,1492886951503327924,7.87713194268,6.95389815993,-1.22775188671,0.0,0.0,0.0
2017-04-22 18:49:11.545036041,1492886951545036041,7.9231824246,7.07790552911,-1.18104354076,0.0,0.0,0.0
2017-04-22 18:49:11.589023135,1492886951589023135,7.9717493711,7.20868937788,-1.13178278075,0.0,0.0,0.0
2017-04-22 18:49:11.628315133,1492886951628315133,8.01343331694,7.332669404,-1.09925986756,0.0,0.0,0.0
2017-04-22 18:49:11.670004726,1492886951670004726,8.04671129175,7.51033994749,-1.13874221055,0.0,0.0,0.0
2017-04-22 18:49:11.711660637,1492886951711660637,8.09095870673,7.65116030012,-1.12513526116,0.0,0.0,0.0
2017-04-22 18:49:11.753546273,1492886951753546273,8.15512809398,7.72707310465,-1.01650865136,0.0,0.0,0.0
2017-04-22 18:49:11.794998169,1492886951794998169,8.2186331028,7.80219994514,-0.90900670833,0.0,0.0,0.0
2017-04-22 18:49:11.836674158,1492886951836674158,8.278713203,7.93793937794,-0.933657590453,0.0,0.0,0.0
2017-04-22 18:49:11.878362860,1492886951878362860,8.3386670306,8.07603991875,-0.963427766916,0.0,0.0,0.0
2017-04-22 18:49:11.920046960,1492886951920046960,8.38891326829,8.20597724577,-0.99638815009,0.0,0.0,0.0
2017-04-22 18:49:11.961636851,1492886951961636851,8.43093472178,8.32880918675,-1.03194476459,0.0,0.0,0.0
2017-04-22 18:49:12.003311025,1492886952003311025,8.47478733271,8.45105142319,-1.06636780935,0.0,0.0,0.0
2017-04-22 18:49:12.045066906,1492886952045066906,8.54119803614,8.56274215168,-1.08534229604,0.0,0.0,0.0
2017-04-22 18:49:12.086723805,1492886952086723805,8.60745117044,8.67416787756,-1.10427176298,0.0,0.0,0.0
2017-04-22 18:49:12.128415327,1492886952128415327,8.6556649573,8.76627045789,-1.11589731743,0.0,0.0,0.0
2017-04-22 18:49:12.170068491,1492886952170068491,8.69782237124,8.85183748618,-1.12508012047,0.0,0.0,0.0
2017-04-22 18:49:12.211744425,1492886952211744425,8.7379131391,8.93653695036,-1.11348562743,0.0,0.0,0.0
2017-04-22 18:49:12.253434624,1492886952253434624,8.7742306738,9.01960809294,-1.06422736198,0.0,0.0,0.0
2017-04-22 18:49:12.295079080,1492886952295079080,8.81050851281,9.10258843734,-1.01502293665,0.0,0.0,0.0
2017-04-22 18:49:12.336734140,1492886952336734140,8.84039850752,9.16319699401,-0.99540092492,0.0,0.0,0.0
2017-04-22 18:49:12.378401282,1492886952378401282,8.87002285382,9.22286293093,-0.977042175099,0.0,0.0,0.0
2017-04-22 18:49:12.419959813,1492886952419959813,8.8892998247,9.25926638099,-0.954767062725,0.0,0.0,0.0
2017-04-22 18:49:12.461799332,1492886952461799332,8.90060946286,9.27769690244,-0.929215657982,0.0,0.0,0.0
2017-04-22 18:49:12.503459885,1492886952503459885,8.91340866216,9.29976234589,-0.902282244123,0.0,0.0,0.0
2017-04-22 18:49:12.545148585,1492886952545148585,8.93394246922,9.34049876958,-0.867838438729,0.0,0.0,0.0
2017-04-22 18:49:12.586781192,1492886952586781192,8.9544485359,9.38118015993,-0.833441165584,0.0,0.0,0.0
2017-04-22 18:49:12.628427660,1492886952628427660,8.96517747029,9.42595286688,-0.80576583122,0.0,0.0,0.0
2017-04-22 18:49:12.669975073,1492886952669975073,8.91803412982,9.4947266812,-0.817967636987,0.0,0.0,0.0
2017-04-22 18:49:12.711635530,1492886952711635530,8.89076456418,9.55795407533,-0.835121828595,0.0,0.0,0.0
2017-04-22 18:49:12.753305748,1492886952753305748,8.90172678058,9.6102354151,-0.861684122186,0.0,0.0,0.0
2017-04-22 18:49:12.794979523,1492886952794979523,8.91268987248,9.6625209303,-0.888248537171,0.0,0.0,0.0
2017-04-22 18:49:12.836714374,1492886952836714374,8.95559909083,9.70137467403,-0.978216963806,0.0,0.0,0.0
2017-04-22 18:49:12.878430312,1492886952878430312,8.99941628193,9.73981805867,-1.06998504328,0.0,0.0,0.0
2017-04-22 18:49:12.920184603,1492886952920184603,9.02895718533,9.7789984327,-1.14087155599,0.0,0.0,0.0
2017-04-22 18:49:12.961692771,1492886952961692771,9.04684146951,9.81851022335,-1.19452440854,0.0,0.0,0.0
2017-04-22 18:49:13.003372087,1492886953003372087,9.06728090595,9.84884433669,-1.22918058294,0.0,0.0,0.0
2017-04-22 18:49:13.044974163,1492886953044974163,9.10109318535,9.82863943802,-1.15990664464,0.0,0.0,0.0
2017-04-22 18:49:13.086693140,1492886953086693140,9.13500055061,9.80837771976,-1.09043789631,0.0,0.0,0.0
2017-04-22 18:49:13.128413763,1492886953128413763,9.144,9.83365888732,-1.06518691393,0.0,0.0,0.0
2017-04-22 18:49:13.170080012,1492886953170080012,9.144,9.87534025387,-1.05592438803,0.0,0.0,0.0
2017-04-22 18:49:13.211689071,1492886953211689071,9.13842610014,9.91194263219,-1.05075322971,0.0,0.0,0.0
2017-04-22 18:49:13.253360771,1492886953253360771,9.12289848743,9.93964053593,-1.05285155575,0.0,0.0,0.0
2017-04-22 18:49:13.295071062,1492886953295071062,9.10735666167,9.96736379269,-1.05495180248,0.0,0.0,0.0
2017-04-22 18:49:13.336727086,1492886953336727086,9.07006226766,9.96157604655,-1.03291766001,0.0,0.0,0.0
2017-04-22 18:49:13.378377423,1492886953378377423,9.03226092007,9.95500189914,-1.01031902831,0.0,0.0,0.0
2017-04-22 18:49:13.420038361,1492886953420038361,8.98476515497,9.93986025162,-0.978240073651,0.0,0.0,0.0
2017-04-22 18:49:13.461821458,1492886953461821458,8.92897151322,9.9174582591,-0.938085558755,0.0,0.0,0.0
2017-04-22 18:49:13.503308181,1492886953503308181,8.8814417918,9.89772004327,-0.902885288877,0.0,0.0,0.0
2017-04-22 18:49:13.547352144,1492886953547352144,8.87172016839,9.88973442403,-0.889691657098,0.0,0.0,0.0
2017-04-22 18:49:13.586726897,1492886953586726897,8.86302910057,9.88259533261,-0.877896636483,0.0,0.0,0.0
2017-04-22 18:49:13.628338627,1492886953628338627,8.85110352926,9.88336787195,-0.848296940433,0.0,0.0,0.0
2017-04-22 18:49:13.670058802,1492886953670058802,8.82005654639,9.94207489409,-0.699271422683,0.0,0.0,0.0
2017-04-22 18:49:13.711641604,1492886953711641604,8.78007422807,9.97706973942,-0.578385811149,0.0,0.0,0.0
2017-04-22 18:49:13.755806617,1492886953755806617,8.71992805855,9.96822471449,-0.504087601738,0.0,0.0,0.0
2017-04-22 18:49:13.795088384,1492886953795088384,8.66643241262,9.96035770774,-0.438004744998,0.0,0.0,0.0
2017-04-22 18:49:13.836719555,1492886953836719555,8.61134634566,9.9619944566,-0.379554106419,0.0,0.0,0.0
2017-04-22 18:49:13.878390701,1492886953878390701,8.55627964551,9.96408031646,-0.321567202469,0.0,0.0,0.0
2017-04-22 18:49:13.920086819,1492886953920086819,8.51504821525,9.94944151263,-0.276261620497,0.0,0.0,0.0
2017-04-22 18:49:13.964155987,1492886953964155987,8.48301707517,9.92004306899,-0.23896508753,0.0,0.0,0.0
2017-04-22 18:49:14.003320433,1492886954003320433,8.45423977029,9.89446034201,-0.208314742215,0.0,0.0,0.0
2017-04-22 18:49:14.045022600,1492886954045022600,8.4218094487,9.87034548749,-0.19002071465,0.0,0.0,0.0
2017-04-22 18:49:14.086838013,1492886954086838013,8.38929133231,9.84616534967,-0.171677161817,0.0,0.0,0.0
2017-04-22 18:49:14.128471046,1492886954128471046,8.35866378616,9.81363085866,-0.155521667889,0.0,0.0,0.0
2017-04-22 18:49:14.170090011,1492886954170090011,8.32864843145,9.77819606491,-0.140097110606,0.0,0.0,0.0
2017-04-22 18:49:14.211811846,1492886954211811846,8.31570123106,9.75179506341,-0.166128376133,0.0,0.0,0.0
2017-04-22 18:49:14.253447199,1492886954253447199,8.3349729729,9.74257814339,-0.27002820174,0.0,0.0,0.0
2017-04-22 18:49:14.295032947,1492886954295032947,8.35422172678,9.73337221763,-0.373804092189,0.0,0.0,0.0
2017-04-22 18:49:14.336674034,1492886954336674034,8.37132014168,9.73140779106,-0.446863036859,0.0,0.0,0.0
2017-04-22 18:49:14.378335619,1492886954378335619,8.38833535811,9.72974776994,-0.518658950074,0.0,0.0,0.0
2017-04-22 18:49:14.420058047,1492886954420058047,8.39623217518,9.72226691989,-0.61461599826,0.0,0.0,0.0
2017-04-22 18:49:14.461732437,1492886954461732437,8.39665367397,9.71004345485,-0.730106668013,0.0,0.0,0.0
2017-04-22 18:49:14.503378533,1492886954503378533,8.39618303204,9.69877454806,-0.834045002421,0.0,0.0,0.0
2017-04-22 18:49:14.545116936,1492886954545116936,8.39157772577,9.69186658865,-0.885032321847,0.0,0.0,0.0
2017-04-22 18:49:14.586722486,1492886954586722486,8.38698707933,9.684980619,-0.93585733597,0.0,0.0,0.0
2017-04-22 18:49:14.628336331,1492886954628336331,8.39155988294,9.67226915187,-0.976122446189,0.0,0.0,0.0
2017-04-22 18:49:14.670060122,1492886954670060122,8.45675219142,9.62100682384,-0.946590887646,0.0,0.0,0.0
2017-04-22 18:49:14.711804347,1492886954711804347,8.48222710028,9.5744878786,-0.950744594021,0.0,0.0,0.0
2017-04-22 18:49:14.753672429,1492886954753672429,8.42932310105,9.53724346314,-1.021424337,0.0,0.0,0.0
2017-04-22 18:49:14.795090672,1492886954795090672,8.3769874542,9.50039916775,-1.09134476119,0.0,0.0,0.0
2017-04-22 18:49:14.836721802,1492886954836721802,8.32412318634,9.48270352063,-1.13056770982,0.0,0.0,0.0
2017-04-22 18:49:14.878376206,1492886954878376206,8.27121946759,9.46575779821,-1.16859225767,0.0,0.0,0.0
2017-04-22 18:49:14.920137302,1492886954920137302,8.247,9.458,-1.186,0.0,-0.0,0.0
2017-04-22 18:49:14.961674805,1492886954961674805,8.247,9.458,-1.186,0.0,-0.0,0.0
